<?xml version="1.0" encoding="iso-8859-1"?>
<!-- Generator: Adobe Illustrator 15.1.0, SVG Export Plug-In . SVG Version: 6.00 Build 0)  -->
<!DOCTYPE svg PUBLIC "-//W3C//DTD SVG 1.1//EN" "http://www.w3.org/Graphics/SVG/1.1/DTD/svg11.dtd">
<svg version="1.1" id="Chick" xmlns="http://www.w3.org/2000/svg" xmlns:xlink="http://www.w3.org/1999/xlink" x="0px" y="0px"
	 width="35px" height="40px" viewBox="0 0 35 40" style="enable-background:new 0 0 35 40;" xml:space="preserve">
<symbol  id="Chick_1_" viewBox="-34 -65 91 76">
	<g id="shadow_1_">
		<g style="opacity:0.3711;">
			
				<image style="overflow:visible;" width="91" height="76" xlink:href="data:image/png;base64,iVBORw0KGgoAAAANSUhEUgAAAFsAAABMCAYAAAAC5cu6AAAACXBIWXMAAAsSAAALEgHS3X78AAAA
GXRFWHRTb2Z0d2FyZQBBZG9iZSBJbWFnZVJlYWR5ccllPAAAAQ9JREFUeNrs1rFKA0EUBdBkY21E
66iNjdht6Yf4h4LfIWKVTgsLm/gDGhvBGH0LL7BNdGP1inPgMpCEMFweMzMaAQAAAAAAAAAAAAAA
bDOuurG2bZtYNtnFust8Pl8re1jBk8h+ZJZrs0PRy8hL5C2yqlT6uFjR08hp5DByErnMwicD/+Yr
i76NPESeu9KrFL5XaLC7so8jV5GLyFEWPc19NgOmehU5j5xF7iPXkcf8TtlbfOdx8BQ56B0n419+
/55T/Rr5yM9KqVR2N32LyE1O8+bsng04TjbHx12un3lmL6pMdeULsuntb8hF2b8YlznV5V4lZZ9+
/3gCln3yAQAAAAAAAAAAAAAA/O1HgAEAHz5DrlLuK+gAAAAASUVORK5CYII=" transform="matrix(1 0 0 -1 -34 11)">
			</image>
		</g>
	</g>
	<g id="Chick_x5F_body_1_">
		
			<use xlink:href="#Chick_x5F_body"  width="26.6" height="28.65" x="-13.3" y="-14.35" transform="matrix(1 0 0.1154 1 14.2998 -14.2998)" style="overflow:visible;"/>
	</g>
	<g id="Chick_x5F_foot_3_">
		
			<use xlink:href="#Chick_x5F_foot"  width="5.1" height="6.95" x="-2.5" y="-3.5" transform="matrix(0.9921 -0.1223 0.1223 0.9921 12.75 -23.8496)" style="overflow:visible;"/>
	</g>
	<g id="Chick_x5F_foot_2_">
		
			<use xlink:href="#Chick_x5F_foot"  width="5.1" height="6.95" x="-2.5" y="-3.5" transform="matrix(0.9512 -0.3053 0.3053 0.9512 21.4004 -23.8999)" style="overflow:visible;"/>
	</g>
	<g id="Chick_x5F_beak_1_">
		<g>
			<path style="fill-rule:evenodd;clip-rule:evenodd;fill:#993300;" d="M21.075-14.25H21.1c0-0.1,0-0.2,0-0.3
				c0-0.034,0-0.083,0-0.15c-0.2-0.033-0.383-0.083-0.55-0.15c-0.267-0.167-0.466-0.25-0.6-0.25c-0.5,0.2-1.217,0.3-2.15,0.3
				c-0.267,0-0.583-0.05-0.95-0.15c-0.1,0-0.2-0.017-0.3-0.05c-0.029,0.146-0.045,0.279-0.05,0.4c0.033,0.5,0.267,1,0.7,1.5
				c0.167,0.167,0.333,0.333,0.5,0.5c0.333,0.167,0.7,0.25,1.1,0.25c0.633,0,1.167-0.217,1.6-0.65
				C20.765-13.365,20.99-13.782,21.075-14.25z M20-15.45c0.067,0,0.233,0.067,0.5,0.2c0.158,0.063,0.349,0.122,0.575,0.175
				c-0.091-0.45-0.316-0.841-0.675-1.175c-0.433-0.467-0.967-0.7-1.6-0.7s-1.183,0.233-1.65,0.7
				c-0.277,0.277-0.469,0.594-0.575,0.95c0.466,0.133,0.875,0.2,1.225,0.2c0.246,0,0.487-0.008,0.725-0.025
				c0.109-0.026,0.217-0.051,0.325-0.075c0.147-0.025,0.289-0.042,0.425-0.05C19.524-15.305,19.766-15.372,20-15.45z"/>
		</g>
	</g>
	<g id="Chick_x5F_Eyes_1_">
		
			<use xlink:href="#Chick_x5F_Eyes"  width="16.721" height="7.103" x="-8.171" y="-3.55" transform="matrix(1 0 0 1 17.8496 -9.6001)" style="overflow:visible;"/>
	</g>
	<g id="Chick_x5F_wing_1_">
		
			<use xlink:href="#Chick_x5F_wing"  width="8.664" height="5.206" x="-4.3" y="-2.656" transform="matrix(1 0 0 1 5.75 -17.1001)" style="overflow:visible;"/>
	</g>
	<g id="states_1_">
	</g>
</symbol>
<symbol  id="Chick_x5F_Eyes" viewBox="-8.171 -3.55 16.721 7.103">
	<g id="Eye_3_">
		
			<use xlink:href="#Chick_x5F_eyewhite"  width="5.65" height="6.25" x="-2.8" y="-3.15" transform="matrix(-1.1233 -0.1785 -0.1785 1.1233 -4.8999 0.0498)" style="overflow:visible;"/>
	</g>
	<g id="Eye_2_">
		
			<use xlink:href="#Chick_x5F_eyewhite"  width="5.65" height="6.25" x="-2.8" y="-3.15" transform="matrix(1 0 0 1 5.7002 -0.3999)" style="overflow:visible;"/>
	</g>
	<g id="Pupil_3_">
		
			<use xlink:href="#Chick_x5F_pupil"  width="3.207" height="3.307" x="-1.555" y="-1.655" transform="matrix(1.1906 0 0 1.1906 -6.0498 -1.0498)" style="overflow:visible;"/>
	</g>
	<g id="Pupil_2_">
		
			<use xlink:href="#Chick_x5F_pupil"  width="3.207" height="3.307" x="-1.555" y="-1.655" transform="matrix(0.995 0.0968 -0.0968 0.995 4.1997 -1.3999)" style="overflow:visible;"/>
	</g>
</symbol>
<symbol  id="Chick_x5F_Eyes_x5F_all" viewBox="-8.171 -3.55 16.721 7.103">
	<g id="Eye_5_">
		
			<use xlink:href="#Chick_x5F_eyewhite"  width="5.65" height="6.25" x="-2.8" y="-3.15" transform="matrix(-1.1233 -0.1785 -0.1785 1.1233 -4.8999 0.0498)" style="overflow:visible;"/>
	</g>
	<g id="Eye_4_">
		
			<use xlink:href="#Chick_x5F_eyewhite"  width="5.65" height="6.25" x="-2.8" y="-3.15" transform="matrix(1 0 0 1 5.7002 -0.3999)" style="overflow:visible;"/>
	</g>
	<g id="Pupil_5_">
		
			<use xlink:href="#Chick_x5F_pupil"  width="3.207" height="3.307" x="-1.555" y="-1.655" transform="matrix(1.1906 0 0 1.1906 -6.0498 -1.0498)" style="overflow:visible;"/>
	</g>
	<g id="Pupil_4_">
		
			<use xlink:href="#Chick_x5F_pupil"  width="3.207" height="3.307" x="-1.555" y="-1.655" transform="matrix(0.995 0.0968 -0.0968 0.995 4.2495 -1.3501)" style="overflow:visible;"/>
	</g>
	<g id="Layer_2_2_">
	</g>
	<g id="Layer_3_1_">
	</g>
	<g id="Layer_4_1_">
	</g>
	<g id="Layer_5_1_">
	</g>
</symbol>
<symbol  id="Chick_x5F_beak" viewBox="-2.052 -2.228 4.152 4.428">
	<g id="Layer_1_5_">
		<g>
			<path style="fill-rule:evenodd;clip-rule:evenodd;fill:#993300;" d="M2.1,0.3C2-0.2,1.467-0.717,0.5-1.25
				c-1.233,0.4-2.017,1.083-2.35,2.05v0.05L-1.9,0.9c0.1,0.2,0.233,0.4,0.4,0.6c0,0.033,0.017,0.05,0.05,0.05
				c0.4,0.434,0.9,0.65,1.5,0.65c0.567,0,1.05-0.217,1.45-0.65C1.867,1.183,2.067,0.767,2.1,0.3z M2.05-0.4L1.5-1.3
				C0.833-2.467-0.1-2.533-1.3-1.5C-1.933-0.933-2.167-0.233-2,0.6c0.467-1.167,1.317-1.917,2.55-2.25
				C1.15-1.35,1.65-0.933,2.05-0.4z"/>
		</g>
	</g>
</symbol>
<symbol  id="Chick_x5F_body" viewBox="-13.3 -14.35 26.6 28.65">
	<g id="Layer_1_7_">
		<g>
			<path style="fill-rule:evenodd;clip-rule:evenodd;fill:#FFCC00;" d="M0.65,13.35c0.133,0.433,0.4,0.733,0.8,0.9
				c-0.233-0.2-0.434-0.533-0.6-1c-0.033-0.1-0.083-0.233-0.15-0.4c0.1,0,0.2,0,0.3,0c0.133,0.1,0.3,0.217,0.5,0.35
				c0.267,0.2,0.533,0.4,0.8,0.6c-0.033-0.066-0.283-0.283-0.75-0.65c-0.167-0.1-0.3-0.217-0.4-0.35H1.2c0.1,0,0.183,0,0.25,0
				c0.066,0.067,0.133,0.133,0.2,0.2c0.3,0.267,0.55,0.467,0.75,0.6c0-0.033-0.017-0.067-0.05-0.1c0.2,0.133,0.367,0.2,0.5,0.2
				C2.317,13.3,1.933,13,1.7,12.8c0.1-0.033,0.216-0.05,0.35-0.05c0.1,0.067,0.25,0.133,0.45,0.2c0.533,0.2,1,0.283,1.4,0.25
				c-0.3-0.034-0.683-0.15-1.15-0.35C2.617,12.817,2.5,12.767,2.4,12.7c0.167-0.034,0.333-0.067,0.5-0.1c0.1,0.1,0.217,0.2,0.35,0.3
				c0.3,0.167,0.583,0.25,0.85,0.25c-0.434-0.2-0.717-0.333-0.85-0.4C3.15,12.683,3.067,12.633,3,12.6c0.3-0.067,0.6-0.15,0.9-0.25
				c0.333,0.233,0.55,0.367,0.65,0.4c0.467,0.267,1,0.4,1.6,0.4c-0.5-0.066-1-0.233-1.5-0.5c-0.2-0.133-0.383-0.233-0.55-0.3
				c0.433,0,0.816-0.033,1.15-0.1c-0.3,0.033-0.633,0.033-1,0c0.3-0.1,0.583-0.2,0.85-0.3c0.1,0,0.2,0.017,0.3,0.05
				c0.2,0.067,0.434,0.117,0.7,0.15c0.267,0.067,0.483,0.117,0.65,0.15c-0.067-0.1-0.333-0.216-0.8-0.35
				c-0.1-0.034-0.25-0.1-0.45-0.2C5.667,11.683,5.833,11.6,6,11.5c0.167,0.067,0.317,0.1,0.45,0.1c0.5,0.066,0.95,0.05,1.35-0.05
				c-0.466,0-0.983-0.05-1.55-0.15c0.033-0.033,0.067-0.05,0.1-0.05c0.333-0.033,0.617-0.05,0.85-0.05
				c0.3-0.033,0.466-0.083,0.5-0.15c-0.067,0-0.4-0.017-1-0.05c0.267-0.167,0.5-0.333,0.7-0.5c0.1,0,0.217-0.017,0.35-0.05
				c0.533-0.1,0.917-0.283,1.15-0.55L8.85,9.95c-0.133,0.033-0.25,0.066-0.35,0.1c-0.167,0.034-0.367,0.067-0.6,0.1
				c0.067-0.033,0.133-0.083,0.2-0.15c0.133,0.067,0.316,0.05,0.55-0.05c0.167-0.034,0.3-0.117,0.4-0.25
				C9.117,9.567,9.133,9.467,9.1,9.4c0.333-0.1,0.566-0.267,0.7-0.5c0.167-0.033,0.3-0.066,0.4-0.1c0.033-0.066,0.066-0.15,0.1-0.25
				c-0.066,0.034-0.15,0.05-0.25,0.05c0.1-0.1,0.233-0.167,0.4-0.2c0.3-0.1,0.466-0.283,0.5-0.55c0.066-0.333,0.133-0.517,0.2-0.55
				c0.333-0.367,0.5-0.583,0.5-0.65c0.033-0.066,0.017-0.183-0.05-0.35c0.633-0.3,1-0.55,1.1-0.75c-0.133,0.1-0.483,0.284-1.05,0.55
				C11.717,6,11.833,5.733,12,5.3c0.033-0.1,0.067-0.183,0.1-0.25h0.2c0,0.034,0.017,0.067,0.05,0.1c0-0.066,0.017-0.133,0.05-0.2
				c-0.033-0.034-0.083-0.05-0.15-0.05c-0.033,0-0.067,0-0.1,0c0.167-0.4,0.25-0.65,0.25-0.75c0-0.066-0.017-0.2-0.05-0.4
				c0-0.1-0.017-0.2-0.05-0.3c0.233-0.2,0.35-0.35,0.35-0.45V2.95C12.817,2.783,12.9,2.6,12.9,2.4c0-0.066-0.017-0.133-0.05-0.2
				L12.8,2.15c-0.033,0.167-0.066,0.283-0.1,0.35c-0.034,0.133-0.067,0.233-0.1,0.3c-0.033,0-0.05-0.017-0.05-0.05
				S12.6,2.567,12.7,2.3c0.066-0.267,0.117-0.5,0.15-0.7c0.066-0.1,0.133-0.217,0.2-0.35c-0.066,0-0.117,0-0.15,0
				c0.033-0.067,0.05-0.133,0.05-0.2c0-0.1-0.05-0.2-0.15-0.3c-0.033-0.033-0.066-0.067-0.1-0.1c0.066-0.066,0.133-0.133,0.2-0.2
				c0.067-0.1,0.15-0.284,0.25-0.55c0.066-0.229,0.116-0.363,0.15-0.4c-0.068,0.069-0.201,0.252-0.4,0.55
				c-0.066,0.1-0.15,0.2-0.25,0.3c0-0.067,0-0.117,0-0.15c0-0.067-0.017-0.284-0.05-0.65c0.066-0.1,0.117-0.2,0.15-0.3
				c0.333-0.2,0.5-0.35,0.5-0.45c0-0.066-0.017-0.1-0.05-0.1l-0.05-0.05c-0.066,0.1-0.2,0.217-0.4,0.35c0-0.067,0-0.117,0-0.15v-0.1
				c0-0.033-0.05-0.05-0.15-0.05l0.1-0.2c0-0.133-0.034-0.233-0.1-0.3c0.1-0.034,0.183-0.083,0.25-0.15
				c0.066-0.066,0.1-0.133,0.1-0.2c0-0.033-0.05-0.15-0.15-0.35c0,0.033,0,0.067,0,0.1c0,0.066,0,0.15,0,0.25L12.75-2
				c-0.067,0-0.15-0.017-0.25-0.05c0.067-0.133,0.133-0.3,0.2-0.5V-2.6c-0.067,0.067-0.167,0.233-0.3,0.5
				c0-0.033-0.017-0.05-0.05-0.05L12.3-2.2c0.034-0.033,0.05-0.066,0.05-0.1c0-0.067-0.017-0.1-0.05-0.1h-0.05
				c0.1-0.033,0.167-0.083,0.2-0.15c0.066-0.1,0.117-0.15,0.15-0.15c0.066,0,0.117,0.017,0.15,0.05l-0.1-0.2
				c0-0.066,0.033-0.133,0.1-0.2c0.033-0.067,0.05-0.117,0.05-0.15c0-0.033,0-0.083,0-0.15c-0.033-0.066-0.1-0.1-0.2-0.1
				c-0.2,0-0.383,0.05-0.55,0.15c0.067-0.133,0.133-0.25,0.2-0.35c0.067-0.067,0.117-0.133,0.15-0.2V-3.9
				c0.033-0.033,0.05-0.083,0.05-0.15V-4.1c0-0.066,0-0.15,0-0.25c0-0.167-0.034-0.316-0.1-0.45v-0.05
				c0.133-0.167,0.283-0.35,0.45-0.55c-0.2,0.1-0.383,0.25-0.55,0.45C12.117-5.117,11.933-5.2,11.7-5.2
				c-0.067,0-0.117,0.017-0.15,0.05c0-0.033,0-0.067,0-0.1v-0.1c0-0.033,0.017-0.066,0.05-0.1c0.066,0,0.117,0,0.15,0
				c0.067,0,0.25,0,0.55,0l0.05-0.05c0.033-0.033,0.05-0.083,0.05-0.15c0-0.067-0.217-0.333-0.65-0.8c-0.033,0-0.05-0.017-0.05-0.05
				c0-0.267-0.017-0.483-0.05-0.65H11.5c0.033,0.1,0.05,0.283,0.05,0.55C11.383-6.8,11.233-6.933,11.1-7
				c-0.033-0.1-0.083-0.167-0.15-0.2L10.9-7.15l0.05,0.05c-0.067-0.033-0.117-0.05-0.15-0.05c0.034-0.1,0.05-0.167,0.05-0.2
				c0-0.167-0.05-0.267-0.15-0.3c0-0.233,0-0.434,0-0.6c0.2-0.267,0.367-0.433,0.5-0.5V-8.8c-0.034,0-0.067,0-0.1,0
				c-0.233,0-0.45,0.15-0.65,0.45c0-0.1-0.034-0.2-0.1-0.3c-0.033-0.067-0.05-0.133-0.05-0.2c0-0.233-0.333-0.733-1-1.5L9.25-10.4
				c0.333-0.233,0.7-0.5,1.1-0.8c-0.133,0.067-0.5,0.317-1.1,0.75c-0.133-0.133-0.267-0.267-0.4-0.4c0.433-0.2,0.667-0.316,0.7-0.35
				c0-0.033-0.033-0.05-0.1-0.05c-0.233,0-0.467,0.083-0.7,0.25c-0.267-0.3-0.4-0.467-0.4-0.5c0-0.1,0-0.167,0-0.2
				c-0.033-0.066-0.117-0.117-0.25-0.15H7.65c0-0.133,0-0.25,0-0.35c0-0.033-0.017-0.066-0.05-0.1l-0.1-0.15
				c-0.033,0.067-0.067,0.133-0.1,0.2c-0.267,0-0.483,0.017-0.65,0.05c0.2-0.3,0.35-0.566,0.45-0.8l-0.05-0.05
				c-0.2,0.1-0.367,0.233-0.5,0.4c-0.033-0.033-0.1-0.067-0.2-0.1c0.167-0.1,0.3-0.167,0.4-0.2V-13l-0.1-0.05
				c-0.033-0.034-0.133-0.05-0.3-0.05c-0.233,0-0.483,0.1-0.75,0.3c0-0.133,0-0.217,0-0.25c-0.034-0.133-0.083-0.233-0.15-0.3H5.5
				v0.05c0,0.033,0,0.117,0,0.25L5.35-13.1c-0.033-0.066-0.184-0.183-0.45-0.35c0.033-0.066,0.05-0.133,0.05-0.2
				c0.1-0.033,0.2-0.083,0.3-0.15c-0.033,0-0.083,0-0.15,0c-0.033,0-0.1,0-0.2,0v0.05c-0.1,0-0.2,0.033-0.3,0.1
				c-0.033,0-0.05-0.017-0.05-0.05c0.034,0,0.083-0.017,0.15-0.05c-0.067,0-0.15,0-0.25,0c-0.034-0.033-0.083-0.067-0.15-0.1
				c-0.233,0-0.433,0.033-0.6,0.1c-0.133,0.1-0.233,0.167-0.3,0.2H2.6c0-0.1,0.017-0.184,0.05-0.25h-0.1c-0.066,0-0.1,0.05-0.1,0.15
				v0.05c-0.034-0.066-0.083-0.1-0.15-0.1c-0.233,0-0.433-0.017-0.6-0.05c-0.067,0-0.117,0-0.15,0v-0.2L1.5-14H1.4
				c0,0.1-0.017,0.183-0.05,0.25c-0.2,0.033-0.383,0.067-0.55,0.1c-0.1,0.066-0.233,0.15-0.4,0.25v-0.1
				c0.4-0.267,0.75-0.467,1.05-0.6c-0.333,0-0.684,0.1-1.05,0.3c-0.033-0.2-0.133-0.3-0.3-0.3c-0.033,0-0.117,0.033-0.25,0.1
				l-0.25,0.1c-0.067,0-0.117-0.033-0.15-0.1c-0.034-0.033-0.083-0.05-0.15-0.05c-0.2,0-0.333,0.017-0.4,0.05
				c-0.066-0.033-0.117-0.05-0.15-0.05c-0.067,0-0.133,0.017-0.2,0.05c-0.1,0.033-0.183,0.067-0.25,0.1
				c-0.066,0.033-0.133,0.083-0.2,0.15v0.15c-0.067,0.067-0.133,0.1-0.2,0.1c0-0.033-0.033-0.1-0.1-0.2
				c-0.066-0.167-0.15-0.267-0.25-0.3v0.05c0.067,0.067,0.117,0.15,0.15,0.25l0.05,0.05c-0.1-0.067-0.217-0.15-0.35-0.25h-0.1v0.35
				c-0.033-0.034-0.083-0.067-0.15-0.1C-2.917-13.717-2.967-13.767-3-13.8c0.033-0.067,0.083-0.133,0.15-0.2
				c0.1-0.033,0.267-0.117,0.5-0.25L-2.4-14.3c-0.033-0.034-0.117-0.05-0.25-0.05c-0.4,0-0.65,0.1-0.75,0.3L-3.45-14
				c0,0.033,0.017,0.05,0.05,0.05c0,0.034,0,0.083,0,0.15h-0.1c-0.033,0.066-0.083,0.117-0.15,0.15c-0.033,0-0.117-0.05-0.25-0.15
				c0.033-0.034,0.05-0.067,0.05-0.1c0.033-0.033,0.117-0.1,0.25-0.2h0.05c0-0.033-0.067-0.05-0.2-0.05S-4-14.117-4.1-14.05
				c-0.033-0.034-0.1-0.05-0.2-0.05c-0.034,0-0.067,0-0.1,0h-0.05c-0.1,0-0.183,0.017-0.25,0.05v-0.05c-0.367-0.1-0.6-0.05-0.7,0.15
				c0,0.034,0,0.067,0,0.1h-0.05v-0.05c-0.433-0.133-0.7-0.233-0.8-0.3v0.1c0,0.067,0.083,0.15,0.25,0.25
				c-0.1,0-0.183,0.017-0.25,0.05c0-0.034-0.017-0.05-0.05-0.05v0.05h-0.05c-0.033,0.033-0.083,0.066-0.15,0.1
				c-0.233-0.066-0.417-0.1-0.55-0.1h-0.1c-0.033,0-0.05,0.017-0.05,0.05c0.067,0.1,0.117,0.15,0.15,0.15v-0.05
				c0.133,0,0.267,0.017,0.4,0.05c0,0.033-0.017,0.067-0.05,0.1c-0.033,0-0.05,0.017-0.05,0.05c-0.2-0.033-0.6-0.1-1.2-0.2
				c-0.033,0-0.066,0.017-0.1,0.05v0.15c-0.233,0.067-0.517,0.184-0.85,0.35c-0.633,0.3-0.983,0.45-1.05,0.45
				c-0.5,0.1-0.85,0.283-1.05,0.55c-0.1,0.133-0.15,0.333-0.15,0.6c0,0.033,0,0.1,0,0.2c-0.104,0.004-0.171,0.021-0.2,0.05v0.45
				c-0.066,0.033-0.133,0.066-0.2,0.1l-0.05-0.05c-0.033,0.033-0.066,0.083-0.1,0.15c-0.2-0.167-0.417-0.25-0.65-0.25
				c-0.1,0-0.183,0.017-0.25,0.05l-0.05,0.05c0.267,0.033,0.5,0.1,0.7,0.2H-12l-0.45,0.05c-0.066,0-0.1,0.017-0.1,0.05
				c0.1,0.1,0.216,0.15,0.35,0.15c-0.033,0.033-0.083,0.066-0.15,0.1l-0.05,0.05c-0.1-0.033-0.2-0.067-0.3-0.1h-0.05
				c-0.033,0-0.05,0.017-0.05,0.05c0,0.034,0.066,0.083,0.2,0.15c-0.467,0.367-0.7,0.65-0.7,0.85c0,0.167,0.033,0.284,0.1,0.35
				c0.133,0.1,0.45,0.2,0.95,0.3c0,0.066,0,0.117,0,0.15c-0.1-0.033-0.2-0.067-0.3-0.1h-0.05c-0.167-0.1-0.3-0.167-0.4-0.2
				c-0.033-0.033-0.067-0.05-0.1-0.05c-0.066-0.033-0.1,0.017-0.1,0.15s0.317,0.333,0.95,0.6v0.05c0,0.067,0.017,0.15,0.05,0.25
				c-0.133-0.033-0.25-0.05-0.35-0.05c-0.034-0.1-0.083-0.2-0.15-0.3L-12.75-8c0.033,0.033,0.067,0.117,0.1,0.25
				c-0.1,0-0.2,0.017-0.3,0.05h-0.1l-0.05,0.1c0.067,0.033,0.133,0.067,0.2,0.1c0,0.067,0.033,0.15,0.1,0.25
				c-0.034,0.033-0.05,0.133-0.05,0.3c0,0.534,0.133,1.017,0.4,1.45c0.034,0.033,0.05,0.083,0.05,0.15
				c-0.1-0.066-0.184-0.133-0.25-0.2c-0.033-0.034-0.05-0.017-0.05,0.05c0,0.033,0.117,0.15,0.35,0.35h-0.05
				c0-0.033-0.017-0.05-0.05-0.05V-5c0,0.133,0.017,0.2,0.05,0.2l0.1-0.05c0.066,0.033,0.15,0.05,0.25,0.05c0,0.033,0,0.083,0,0.15
				l-0.1,0.2c0,0.034-0.017,0.05-0.05,0.05c-0.033,0-0.066,0-0.1,0v-0.05l0.15-0.05h-0.2c-0.033,0-0.05,0.017-0.05,0.05v0.05
				c0,0.033,0.05,0.083,0.15,0.15c0,0.067,0.033,0.167,0.1,0.3c0.066,0.167,0.1,0.267,0.1,0.3l-0.1,0.2
				c-0.067,0.1-0.1,0.167-0.1,0.2c0,0.4,0.067,0.8,0.2,1.2c0.066,0.2,0.2,0.533,0.4,1c0.133,0.3,0.233,0.6,0.3,0.9
				c-0.167-0.067-0.35-0.133-0.55-0.2v0.05c0.1,0.066,0.3,0.183,0.6,0.35c0.033,0.034,0.05,0.067,0.05,0.1V0.2
				c0.067,0.333,0.117,0.667,0.15,1c-0.033,0-0.05-0.017-0.05-0.05h-0.05c0,0.033,0,0.067,0,0.1c0,0.067,0.034,0.133,0.1,0.2
				c-0.033,0.3-0.033,0.5,0,0.6c0,0.034,0,0.067,0,0.1c0,0.1,0.1,0.317,0.3,0.65c-0.1-0.033-0.184-0.05-0.25-0.05V2.8
				c0,0.034,0.133,0.1,0.4,0.2c0.066,0.167,0.167,0.3,0.3,0.4c-0.1,0.033-0.183,0.067-0.25,0.1c-0.033,0.067-0.05,0.133-0.05,0.2
				c0.167,0.066,0.35,0.15,0.55,0.25c-0.1-0.034-0.2-0.05-0.3-0.05c-0.067,0-0.133,0.017-0.2,0.05h-0.05c0,0.033,0,0.1,0,0.2
				c0,0.133,0.066,0.25,0.2,0.35c0.2,0.1,0.534,0.167,1,0.2c0.067,0.033,0.117,0.066,0.15,0.1C-9.333,4.867-9.35,4.933-9.35,5
				c-0.133-0.1-0.233-0.183-0.3-0.25v0.1c0,0.033,0,0.066,0,0.1H-9.9c-0.033,0-0.05,0.033-0.05,0.1c0,0.2,0.2,0.35,0.6,0.45v0.05
				C-9.383,5.583-9.4,5.617-9.4,5.65l0.05,0.05c0,0.033,0,0.083,0,0.15V5.9c0.033,0.1,0.1,0.184,0.2,0.25
				c0.1,0.067,0.233,0.15,0.4,0.25c0,0.133,0.033,0.233,0.1,0.3l0.05,0.05L-8.65,6.8c-0.1-0.033-0.167-0.05-0.2-0.05
				c-0.2,0-0.316,0.017-0.35,0.05c0.1,0.167,0.284,0.3,0.55,0.4c0.033,0.066,0.083,0.117,0.15,0.15c0.167,0.1,0.333,0.133,0.5,0.1
				c0.033,0.033,0.05,0.066,0.05,0.1c-0.1,0-0.233,0-0.4,0c-0.2,0-0.333,0.017-0.4,0.05C-8.783,7.567-8.8,7.583-8.8,7.65
				c0,0.033,0.033,0.05,0.1,0.05c0.034,0.033,0.217,0.066,0.55,0.1v0.05H-8.2C-8.3,7.917-8.35,8-8.35,8.1
				c0,0.233,0.083,0.4,0.25,0.5C-8,8.633-7.833,8.683-7.6,8.75c0,0.067,0.033,0.117,0.1,0.15c0.033,0.167,0.117,0.333,0.25,0.5v0.05
				c-0.1,0.1-0.15,0.2-0.15,0.3c0,0.133,0,0.217,0,0.25h0.1c0.066-0.167,0.15-0.3,0.25-0.4c0.033,0.033,0.066,0.066,0.1,0.1
				c0.133,0.133,0.3,0.267,0.5,0.4c-0.1,0.066-0.167,0.117-0.2,0.15c0.066,0.033,0.1,0.067,0.1,0.1c0.1-0.067,0.183-0.117,0.25-0.15
				c0.033,0.033,0.066,0.066,0.1,0.1c-0.167,0.1-0.283,0.2-0.35,0.3l-0.05,0.05l0.1,0.05l0.15-0.1c0.033-0.033,0.083-0.067,0.15-0.1
				c0.034,0,0.083-0.017,0.15-0.05c0.033,0.066,0.066,0.117,0.1,0.15c0.034,0,0.05,0.017,0.05,0.05c-0.133,0-0.217,0.067-0.25,0.2
				c0.033,0.167,0.05,0.283,0.05,0.35c0,0.033,0.017,0.05,0.05,0.05c0-0.033,0-0.15,0-0.35c0.033-0.1,0.083-0.183,0.15-0.25
				c0.133,0.1,0.267,0.2,0.4,0.3l-0.15,0.45c0.033,0.233,0.05,0.417,0.05,0.55h0.05c0.033-0.434,0.066-0.684,0.1-0.75
				c0-0.067,0-0.117,0-0.15c0.067,0.067,0.15,0.117,0.25,0.15v0.05c0.067,0.067,0.15,0.117,0.25,0.15v0.05
				c0,0.066,0.05,0.167,0.15,0.3c0.1,0.1,0.2,0.183,0.3,0.25c-0.067,0.067-0.1,0.133-0.1,0.2c0,0.133,0.017,0.233,0.05,0.3
				c0,0.1,0,0.183,0,0.25h0.1c0.067-0.2,0.25-0.433,0.55-0.7c0.133,0.034,0.267,0.083,0.4,0.15c-0.067,0.066-0.117,0.133-0.15,0.2
				c-0.167,0.3-0.25,0.517-0.25,0.65c0.033,0.067,0.05,0.117,0.05,0.15c0.067-0.333,0.2-0.633,0.4-0.9v0.3
				c0,0.066-0.017,0.117-0.05,0.15h0.05v0.15h0.1c0.033-0.033,0.05-0.083,0.05-0.15c0.033-0.067,0.117-0.2,0.25-0.4
				c0.1,0.066,0.216,0.117,0.35,0.15c-0.033,0-0.05,0.017-0.05,0.05c-0.2,0.267-0.3,0.45-0.3,0.55c0,0.033,0.017,0.083,0.05,0.15
				s0.067,0.117,0.1,0.15v-0.05c0-0.033,0-0.067,0-0.1c0-0.067,0.083-0.267,0.25-0.6c0.033-0.033,0.066-0.083,0.1-0.15
				c0.066,0.033,0.15,0.067,0.25,0.1c-0.034,0.033-0.067,0.083-0.1,0.15c0.1,0.067,0.3,0.1,0.6,0.1l0.1-0.1V12.7
				c0.034,0.033,0.083,0.05,0.15,0.05c-0.167,0.233-0.367,0.583-0.6,1.05l0.05,0.1c0.3,0.067,0.533-0.083,0.7-0.45
				c0.066-0.167,0.133-0.367,0.2-0.6V12.8c0.133,0,0.284,0.017,0.45,0.05c-0.1,0.233-0.15,0.417-0.15,0.55c0,0.1,0,0.167,0,0.2
				c0.033,0.066,0.066,0.117,0.1,0.15c0-0.333,0.05-0.633,0.15-0.9h0.05c0,0.066,0,0.117,0,0.15c0.033,0.3,0.05,0.717,0.05,1.25h0.1
				l0.1,0.05c0.033-0.033,0.05-0.117,0.05-0.25c0-0.066-0.017-0.367-0.05-0.9c0-0.1,0-0.2,0-0.3c0.167,0,0.333,0,0.5,0
				c0.033,0.1,0.05,0.217,0.05,0.35h0.05c0-0.1,0-0.217,0-0.35c0.067,0,0.15,0,0.25,0C0.567,13.15,0.617,13.317,0.65,13.35z
				 M8.2,9.9c0.1-0.1,0.2-0.2,0.3-0.3C8.633,9.533,8.8,9.483,9,9.45C8.933,9.583,8.817,9.7,8.65,9.8C8.517,9.9,8.367,9.933,8.2,9.9z
				 M9.55,8.65c0.034,0,0.067,0,0.1,0L9.7,8.7c-0.034,0-0.067,0-0.1,0L9.55,8.65z M8.95,9.15c0.066,0,0.15-0.017,0.25-0.05h0.05
				c0.033,0,0.067,0,0.1,0L9.5,9.15c-0.1,0.1-0.233,0.133-0.4,0.1C9.033,9.217,8.983,9.183,8.95,9.15z M9.4,8.45
				c0.033,0,0.067,0.017,0.1,0.05c-0.033,0-0.067,0-0.1,0V8.45z M10,7.6c0.1-0.067,0.183-0.133,0.25-0.2
				c0.033,0.033,0.067,0.05,0.1,0.05c0.1,0.066,0.267,0.083,0.5,0.05h0.05c0,0.033,0,0.083,0,0.15c0,0.133-0.05,0.267-0.15,0.4
				S10.5,8.267,10.3,8.3c0.067-0.033,0.133-0.083,0.2-0.15c0.033-0.133,0.083-0.25,0.15-0.35H10.6c0-0.033-0.033-0.049-0.1-0.05
				c0.033,0,0.05-0.017,0.05-0.05H10.5c-0.067,0-0.133,0.017-0.2,0.05v-0.1c-0.133,0-0.25,0-0.35,0L10,7.6z M10.8,7.1l0.3,0.05
				c-0.067,0.067-0.117,0.1-0.15,0.1L10.8,7.1z M10.7,7.25l0.1,0.1h-0.35C10.583,7.283,10.667,7.25,10.7,7.25z M11.2,6.55
				c0.033,0.034,0.083,0.067,0.15,0.1V6.7c-0.067,0.066-0.15,0.1-0.25,0.1c0.033-0.066,0.066-0.133,0.1-0.2
				c-0.067,0.033-0.15,0.066-0.25,0.1c0.033-0.034,0.083-0.083,0.15-0.15H11.2z M10.65,6.2c0-0.034,0.017-0.067,0.05-0.1h0.15
				c0,0.033,0,0.083,0,0.15C10.772,6.244,10.705,6.228,10.65,6.2z M11.5,6.55c-0.033,0-0.067-0.033-0.1-0.1h-0.05
				c0.066-0.034,0.117-0.05,0.15-0.05C11.5,6.433,11.5,6.483,11.5,6.55z M11.45,5.85c0.066-0.067,0.133-0.133,0.2-0.2
				c0.067-0.066,0.117-0.15,0.15-0.25c0,0.067-0.017,0.15-0.05,0.25c-0.067,0.2-0.15,0.333-0.25,0.4c0-0.033,0.017-0.066,0.05-0.1
				c-0.033,0-0.066,0-0.1,0C11.45,5.917,11.45,5.883,11.45,5.85z M11.75,4.95c-0.1,0-0.167-0.017-0.2-0.05h0.05V4.85l0.1,0.05
				c0.1,0,0.167,0.017,0.2,0.05H11.75z M11.55,5.25c0.034,0,0.067,0,0.1,0c-0.066,0.067-0.15,0.133-0.25,0.2V5.4
				C11.433,5.367,11.483,5.317,11.55,5.25z M12.1,3.95C12,4.017,11.9,4.067,11.8,4.1V4l0.4-0.2c0,0.034,0,0.067,0,0.1
				S12.167,3.967,12.1,4V3.95z M12.1,4.1c0.066-0.033,0.117-0.067,0.15-0.1c0,0.033,0,0.083,0,0.15c0,0.067-0.017,0.167-0.05,0.3
				c-0.034,0.133-0.067,0.233-0.1,0.3c-0.067-0.067-0.133-0.117-0.2-0.15h-0.05c0.1-0.167,0.167-0.25,0.2-0.25L12.1,4.3V4.25
				C12.1,4.217,12.1,4.167,12.1,4.1z M11.8,3.9c0.029,0,0.054,0,0.075,0c-0.03,0.014-0.055,0.03-0.075,0.05V3.9z M11.8,3.8
				c0.067-0.033,0.133-0.066,0.2-0.1h0.05c-0.066,0.066-0.15,0.117-0.25,0.15V3.8z M11.75,3.6c0-0.033-0.017-0.067-0.05-0.1
				c0.133-0.033,0.267-0.083,0.4-0.15V3.4c-0.067,0.033-0.15,0.083-0.25,0.15C11.817,3.55,11.783,3.567,11.75,3.6z M11.7,3.4
				c0.033-0.033,0.066-0.066,0.1-0.1c0.034-0.033,0.067-0.066,0.1-0.1c0.033,0.033,0.067,0.066,0.1,0.1
				c-0.1,0.067-0.2,0.117-0.3,0.15V3.4z M12.2,3.1l-0.05-0.15l0.3-0.05v0.05c-0.034,0.066-0.083,0.117-0.15,0.15H12.2z M12.15,2.75
				c0.033-0.067,0.083-0.117,0.15-0.15c0,0.033,0.017,0.066,0.05,0.1L12.3,2.75H12.15z M12.35,2.5
				c-0.033-0.033-0.05-0.083-0.05-0.15c0.1-0.133,0.25-0.333,0.45-0.6V1.8c0,0.034-0.05,0.15-0.15,0.35
				c-0.1,0.2-0.15,0.35-0.15,0.45C12.417,2.567,12.383,2.533,12.35,2.5z M12.2,1.55c0.1-0.1,0.2-0.183,0.3-0.25
				c0,0.034,0.017,0.05,0.05,0.05c-0.1,0.033-0.2,0.1-0.3,0.2H12.2z M12.45,0.9c0.066-0.033,0.117-0.083,0.15-0.15
				c0.2,0.2,0.233,0.383,0.1,0.55c0-0.033-0.017-0.066-0.05-0.1c0.033-0.034,0.067-0.05,0.1-0.05c-0.033-0.133-0.1-0.233-0.2-0.3
				C12.517,0.883,12.483,0.9,12.45,0.9z M12,0.15c0,0.067,0,0.117,0,0.15c-0.033,0.1-0.05,0.167-0.05,0.2
				c-0.033,0.032-0.049,0.065-0.05,0.1c0-0.134,0-0.251,0-0.35C11.933,0.217,11.967,0.183,12,0.15z M12.4,0.45h-0.05
				c0-0.034-0.017-0.05-0.05-0.05v0.05h-0.05L12.1,0.5c0-0.033,0-0.067,0-0.1c0-0.1,0-0.183,0-0.25l0.05-0.05l0.35,0.05
				c0,0.033,0,0.117,0,0.25c0,0.033,0,0.067,0,0.1C12.467,0.5,12.433,0.483,12.4,0.45z M12.45-0.05c-0.034,0-0.067,0-0.1,0h-0.1
				c0.067-0.067,0.133-0.15,0.2-0.25C12.45-0.2,12.45-0.117,12.45-0.05z M12-1.05c0.033-0.034,0.067-0.067,0.1-0.1
				c0.033,0,0.083,0.017,0.15,0.05c-0.067,0.033-0.133,0.083-0.2,0.15C12.017-0.95,12-0.967,12-1V-1.05z M12.15-1.45
				c0.033-0.033,0.083-0.083,0.15-0.15c0-0.033,0.017-0.083,0.05-0.15c0.133,0,0.217,0.033,0.25,0.1c0.033,0.033,0.033,0.083,0,0.15
				c0,0.067,0,0.133,0,0.2h-0.05c-0.1,0-0.216-0.034-0.35-0.1L12.15-1.45z M12.5-1.85L12.4-1.9l0.05-0.05v0.05L12.5-1.85z
				 M12.25-2.1c0.033,0.033,0.067,0.05,0.1,0.05C12.35-2.017,12.333-2,12.3-2v0.05c-0.033,0.034-0.05,0.034-0.05,0H12.2V-2
				C12.233-2.033,12.25-2.067,12.25-2.1z M11.75-2.4c-0.033,0.033-0.05,0.066-0.05,0.1c-0.008-0.057-0.025-0.124-0.05-0.2
				c0.033,0,0.067,0,0.1,0V-2.4z M12.15-2.95c0-0.033-0.017-0.083-0.05-0.15c0.066-0.066,0.15-0.133,0.25-0.2h0.25
				c0.033-0.034,0.05,0,0.05,0.1c0,0.067-0.033,0.133-0.1,0.2c-0.066,0.067-0.2,0.1-0.4,0.1V-2.95z M12.05-2.65
				c0.034-0.033,0.067-0.083,0.1-0.15h0.3C12.317-2.633,12.183-2.583,12.05-2.65z M12.1-1.75c-0.033,0.1-0.05,0.183-0.05,0.25
				c-0.033,0-0.066-0.017-0.1-0.05C11.983-1.617,12.033-1.683,12.1-1.75z M12-3.4c-0.033,0-0.049,0.018-0.05,0.05V-3.4H12z
				 M11.8-4.35c-0.033,0-0.066-0.017-0.1-0.05c0-0.067,0.017-0.117,0.05-0.15c-0.033-0.034-0.05-0.1-0.05-0.2
				c0-0.067-0.067-0.1-0.2-0.1c0.033-0.033,0.05-0.066,0.05-0.1c0.133,0.034,0.284,0.133,0.45,0.3c0,0.033-0.017,0.066-0.05,0.1
				c0,0.033-0.017,0.066-0.05,0.1C11.867-4.417,11.833-4.383,11.8-4.35z M12-4.35c0.033,0,0.067,0,0.1,0l0.1,0.1
				c-0.034,0-0.067,0-0.1,0C12.067-4.283,12.033-4.3,12-4.3V-4.35z M12.15-4.55c0.033,0,0.05,0.017,0.05,0.05
				c-0.034,0-0.067,0-0.1,0L12.15-4.55z M10.75-5.85c-0.067-0.1-0.117-0.2-0.15-0.3h0.1c0,0.066,0.017,0.117,0.05,0.15
				s0.067,0.083,0.1,0.15C10.817-5.85,10.783-5.85,10.75-5.85z M11.2-6.1l-0.05,0.05c0-0.067,0-0.15,0-0.25l0.05,0.05
				c0.1,0.1,0.15,0.167,0.15,0.2C11.283-6.083,11.233-6.1,11.2-6.1z M10.85-6.15c0.033-0.033,0.066-0.05,0.1-0.05L11-6.25
				c0,0.1,0,0.167,0,0.2C10.933-6.083,10.883-6.117,10.85-6.15z M12.05-4.85c-0.066-0.033-0.1-0.066-0.1-0.1
				c0.1,0.067,0.167,0.117,0.2,0.15H12.1C12.067-4.8,12.05-4.817,12.05-4.85z M11.95-5.85c0.033,0.033,0.117,0.067,0.25,0.1
				c0.033,0.067,0.05,0.117,0.05,0.15h-0.4C11.883-5.667,11.917-5.75,11.95-5.85z M11.65-5.85c0-0.033,0.017-0.05,0.05-0.05h0.05
				c0.033,0,0.033,0.017,0,0.05c0,0.033-0.017,0.067-0.05,0.1C11.7-5.783,11.683-5.817,11.65-5.85z M11.7-6.1
				c0-0.033,0-0.083,0-0.15c0.033,0.067,0.05,0.117,0.05,0.15H11.7z M11.55-6.45c0,0.1,0,0.2,0,0.3c-0.1-0.067-0.183-0.133-0.25-0.2
				c-0.033-0.066-0.066-0.117-0.1-0.15c0-0.033,0-0.067,0-0.1v-0.2c0.082,0.082,0.166,0.166,0.25,0.25
				C11.483-6.517,11.517-6.483,11.55-6.45z M10.45-6.45c-0.034-0.167-0.1-0.316-0.2-0.45C10.283-6.933,10.3-6.967,10.3-7
				s0-0.117,0-0.25c0.034,0,0.067-0.017,0.1-0.05c0.067-0.034,0.117-0.05,0.15-0.05v0.3c-0.033,0.033-0.066,0.083-0.1,0.15
				c0,0.167,0,0.267,0,0.3s0,0.067,0,0.1V-6.45z M10.3-7.6c0.034-0.1,0.083-0.2,0.15-0.3c0.033-0.033,0.066-0.083,0.1-0.15v0.4
				c-0.066,0.033-0.117,0.066-0.15,0.1c-0.033,0.033-0.066,0.05-0.1,0.05C10.3-7.533,10.3-7.567,10.3-7.6z M10.95-7v0.05L10.9-7
				H10.95z M10.2-8.35c-0.034,0-0.05-0.017-0.05-0.05v-0.05l0.1,0.05c0,0.033,0,0.066,0,0.1C10.217-8.3,10.2-8.317,10.2-8.35z
				 M9.6-8.3v0.05L9.55-8.3v-0.05L9.6-8.4C9.6-8.367,9.6-8.333,9.6-8.3z M9.9-7.85c0,0.05,0,0.1,0,0.15
				C9.867-7.733,9.833-7.783,9.8-7.85H9.9z M9.25-8.75C9.183-8.85,9.1-8.95,9-9.05C9.033-9.083,9.083-9.1,9.15-9.1
				C9.217-8.967,9.25-8.85,9.25-8.75z M9.6-9.15c0.033,0.133,0.05,0.233,0.05,0.3L9.6-8.8C9.567-8.967,9.55-9.083,9.55-9.15H9.6z
				 M6.25-11.6c-0.033-0.033-0.05-0.066-0.05-0.1v-0.05c0.033,0.033,0.066,0.05,0.1,0.05c0,0.034,0,0.067,0,0.1H6.25z M5.2-12.3
				c-0.034,0.033-0.067,0.066-0.1,0.1v-0.05L5.2-12.3z M5.8-12.3c0.167-0.133,0.317-0.233,0.45-0.3c0.133,0,0.217,0.033,0.25,0.1
				c0.033,0.033,0.033,0.083,0,0.15L6.45-12.3c-0.034,0.1-0.133,0.183-0.3,0.25c-0.167-0.067-0.267-0.1-0.3-0.1
				c-0.033-0.033-0.067-0.083-0.1-0.15H5.8z M7.25-11.6l0.05-0.05c0,0.033,0,0.066,0,0.1L7.25-11.6z M7.05-11.35
				c0-0.033,0.017-0.066,0.05-0.1l0.1,0.05C7.133-11.367,7.083-11.35,7.05-11.35z M7.2-11.2c-0.034,0.034-0.05,0.1-0.05,0.2
				c-0.1-0.067-0.183-0.133-0.25-0.2l0.05-0.05H7.3C7.267-11.217,7.233-11.2,7.2-11.2z M6.45-11.55c0.033,0.033,0.05,0.066,0.05,0.1
				c-0.033,0-0.067-0.017-0.1-0.05L6.45-11.55z M6.7-11.4c-0.1-0.167-0.167-0.25-0.2-0.25L6.45-11.7c0.2,0.067,0.35,0.117,0.45,0.15
				c-0.1,0.066-0.15,0.117-0.15,0.15H6.7z M6.8-12.05h0.55c-0.1,0.1-0.2,0.216-0.3,0.35c-0.066-0.066-0.183-0.117-0.35-0.15
				c-0.034-0.033-0.083-0.05-0.15-0.05l0.05-0.05c0.033-0.033,0.05-0.066,0.05-0.1C6.683-12.05,6.733-12.05,6.8-12.05z M9.45-9.6
				c-0.034,0.033-0.067,0.083-0.1,0.15C9.317-9.517,9.267-9.567,9.2-9.6H9.45z M9-9.95c0.033-0.1,0.067-0.15,0.1-0.15
				c0.133,0,0.25,0.083,0.35,0.25h-0.5L9-9.95z M8.9-9.6h0.05C9.017-9.467,9.067-9.35,9.1-9.25C9-9.217,8.933-9.267,8.9-9.4v-0.05
				C8.9-9.483,8.9-9.533,8.9-9.6z M8.95-10.35c-0.034,0-0.067,0-0.1,0c0-0.033-0.017-0.066-0.05-0.1l-0.05-0.1
				c-0.133,0.033-0.233,0.133-0.3,0.3c-0.034,0-0.067,0.017-0.1,0.05v-0.1c0.033-0.034,0.083-0.067,0.15-0.1
				c0.133-0.1,0.233-0.184,0.3-0.25c0.1,0,0.15,0.017,0.15,0.05V-10.35z M7.9-10.45H7.8c0-0.1-0.017-0.216-0.05-0.35
				c0.067-0.034,0.133-0.067,0.2-0.1c0.167-0.133,0.267-0.2,0.3-0.2c0.067,0,0.15,0.033,0.25,0.1c0.033,0.033,0.067,0.067,0.1,0.1
				l-0.05,0.05C8.383-10.717,8.267-10.6,8.2-10.5c-0.034,0.033-0.067,0.083-0.1,0.15C8.033-10.383,7.967-10.417,7.9-10.45z
				 M8.35-10.2v0.1c-0.025-0.025-0.05-0.059-0.075-0.1H8.35z M8.15-11.5c0,0.033,0,0.067,0,0.1c-0.033,0.033-0.05,0.066-0.05,0.1
				c-0.033,0-0.067,0-0.1,0c0.067-0.1,0.1-0.167,0.1-0.2c0-0.067,0-0.117,0-0.15c0.033,0,0.05,0.017,0.05,0.05V-11.5z M7.7-11.3
				c0-0.133,0-0.25,0-0.35h0.15c0,0.033,0.033,0.05,0.1,0.05c0,0.033,0,0.067,0,0.1s-0.034,0.1-0.1,0.2
				C7.817-11.3,7.767-11.3,7.7-11.3z M5.1-12.65c-0.067,0.2-0.117,0.316-0.15,0.35c-0.133-0.034-0.267-0.083-0.4-0.15
				c0.1-0.033,0.184-0.1,0.25-0.2c0.167-0.167,0.25-0.3,0.25-0.4H5.2C5.167-12.95,5.133-12.817,5.1-12.65z M4.55-12.75
				C4.483-12.683,4.4-12.633,4.3-12.6c0.034-0.066,0.067-0.133,0.1-0.2c0.067-0.067,0.15-0.1,0.25-0.1
				C4.617-12.833,4.583-12.783,4.55-12.75z M3.9-12.7v0.05L3.85-12.7c0.023-0.012,0.057-0.028,0.1-0.05
				C3.927-12.737,3.911-12.721,3.9-12.7z M4-13.05c-0.067,0.1-0.15,0.15-0.25,0.15c0-0.067,0.033-0.133,0.1-0.2
				C3.9-13.075,3.95-13.058,4-13.05z M4.4-13c-0.147,0.037-0.264,0.087-0.35,0.15C4.095-12.895,4.145-12.945,4.2-13
				c0.133-0.1,0.233-0.217,0.3-0.35c0.133,0,0.217,0.017,0.25,0.05c0,0.066,0,0.117,0,0.15c-0.167,0.1-0.283,0.167-0.35,0.2V-13z
				 M4.25-13.3c-0.093,0.116-0.159,0.191-0.2,0.225c-0.015-0.024-0.049-0.049-0.1-0.075c0.066-0.067,0.15-0.117,0.25-0.15H4.25z
				 M4.4-13.55c-0.097-0.033-0.213-0.016-0.35,0.05c0.069-0.036,0.119-0.069,0.15-0.1c0.033,0,0.066,0,0.1,0
				C4.4-13.6,4.433-13.583,4.4-13.55z M4.85-13.65c0,0.066,0,0.117,0,0.15c-0.033-0.033-0.067-0.05-0.1-0.05
				C4.783-13.583,4.817-13.617,4.85-13.65z M3.35-12.85L3.4-12.9l0.15-0.05c0,0.034,0,0.083,0,0.15
				C3.483-12.8,3.417-12.817,3.35-12.85z M2.8-12.95C2.767-12.983,2.717-13,2.65-13c-0.033-0.133-0.05-0.25-0.05-0.35l0.5,0.05
				c-0.133,0.033-0.217,0.117-0.25,0.25C2.817-13.017,2.8-12.983,2.8-12.95z M2.1-13.1c0.033-0.033,0.066-0.066,0.1-0.1
				c0.1-0.066,0.167-0.117,0.2-0.15h0.05c0,0.1,0.017,0.2,0.05,0.3C2.367-13.083,2.233-13.1,2.1-13.1z M1.8-13.15
				c-0.066,0-0.133-0.017-0.2-0.05c0.033-0.033,0.066-0.083,0.1-0.15c0.033-0.066,0.083-0.117,0.15-0.15H2.1
				c-0.033,0.033-0.133,0.1-0.3,0.2V-13.15z M0.25-13.75c-0.067-0.033-0.2-0.05-0.4-0.05c-0.067,0-0.117,0.017-0.15,0.05
				c0.033-0.067,0.133-0.117,0.3-0.15C0.133-13.9,0.217-13.85,0.25-13.75z M0.25-13.3c-0.033,0-0.067,0-0.1,0
				c0.033-0.034,0.067-0.067,0.1-0.1C0.25-13.367,0.25-13.333,0.25-13.3z M1-13.25H0.95c-0.1,0-0.217-0.017-0.35-0.05
				c0.066,0,0.133-0.017,0.2-0.05c0.2-0.133,0.333-0.183,0.4-0.15c-0.1,0.067-0.167,0.133-0.2,0.2V-13.25z M-10.5,4.1
				c0.2,0,0.4,0.05,0.6,0.15c0.033,0.033,0.083,0.067,0.15,0.1c0.033,0.033,0.067,0.083,0.1,0.15c-0.067,0-0.184-0.033-0.35-0.1
				c-0.267-0.066-0.433-0.133-0.5-0.2V4.1z M-10.65,2.4V2.35c0.1,0,0.233,0.05,0.4,0.15c0.1,0.033,0.25,0.05,0.45,0.05
				c0,0.034,0.017,0.067,0.05,0.1l-0.4-0.1c-0.167,0-0.267,0.017-0.3,0.05c0.067,0.033,0.217,0.083,0.45,0.15h0.05
				c-0.066,0.067-0.133,0.117-0.2,0.15c-0.033,0-0.067,0-0.1,0s-0.067,0-0.1,0c-0.066,0-0.133-0.017-0.2-0.05
				c-0.034-0.033-0.05-0.067-0.05-0.1C-10.633,2.617-10.65,2.5-10.65,2.4z M-10.85,1.6c0.033,0.1,0.083,0.233,0.15,0.4l-0.05,0.05
				c-0.067-0.033-0.117-0.117-0.15-0.25c-0.033-0.1-0.05-0.183-0.05-0.25C-10.917,1.583-10.883,1.6-10.85,1.6z M-10.2,2
				c-0.033-0.033-0.066-0.067-0.1-0.1h0.1c0,0.033,0.017,0.05,0.05,0.05C-10.15,1.983-10.167,2-10.2,2z M-10.3,2.1
				c-0.034,0-0.067,0.017-0.1,0.05l-0.05-0.1c0-0.033,0.017-0.066,0.05-0.1c0.033,0.033,0.066,0.066,0.1,0.1V2.1z M-10.15,2.2
				c0,0.033,0.017,0.05,0.05,0.05c0.033,0.065,0.066,0.099,0.1,0.1h-0.05l-0.15-0.1L-10.15,2.2z M-10.6,1.7
				c0.001,0.033,0.018,0.05,0.05,0.05c0,0.033,0.017,0.067,0.05,0.1h-0.05C-10.583,1.817-10.6,1.767-10.6,1.7z M-10.7,1.55
				c-0.033-0.033-0.05-0.083-0.05-0.15c0.167,0,0.317,0.033,0.45,0.1h0.05c0,0.067,0,0.133,0,0.2h-0.05
				c-0.067,0-0.117-0.017-0.15-0.05c-0.066-0.066-0.1-0.133-0.1-0.2h-0.05c-0.033,0.033-0.05,0.066-0.05,0.1
				c0,0.029,0.017,0.046,0.05,0.05C-10.637,1.596-10.67,1.58-10.7,1.55z M-10.7,0.95c0.034,0,0.083,0,0.15,0
				c0.033,0,0.05,0.017,0.05,0.05c0,0.067,0.033,0.133,0.1,0.2c-0.1,0-0.167-0.017-0.2-0.05s-0.083-0.066-0.15-0.1
				C-10.75,1.017-10.733,0.983-10.7,0.95z M-11.1,0.15c0.033,0.033,0.067,0.067,0.1,0.1c-0.033,0-0.067,0-0.1,0
				C-11.1,0.217-11.1,0.183-11.1,0.15z M-10.85,0.65c0.033,0.067,0.083,0.117,0.15,0.15l-0.15,0.05c-0.1,0-0.167-0.1-0.2-0.3
				L-11.1,0.5C-11.033,0.533-10.95,0.583-10.85,0.65z M-10.55,0.3c-0.035-0.001-0.068-0.018-0.1-0.05h0.05
				c0.033,0,0.067,0.017,0.1,0.05H-10.55z M-10.45,0.35c0.133,0.1,0.267,0.2,0.4,0.3c-0.067,0.033-0.1,0.067-0.1,0.1
				c-0.067-0.067-0.133-0.117-0.2-0.15C-10.383,0.5-10.417,0.417-10.45,0.35z M-3.3,12.3c-0.033,0.033-0.05,0.066-0.05,0.1
				c0-0.067-0.017-0.117-0.05-0.15C-3.367,12.25-3.333,12.267-3.3,12.3z M-4.5,12c-0.133-0.167-0.233-0.317-0.3-0.45
				c0.167,0.1,0.333,0.2,0.5,0.3C-4.367,11.883-4.433,11.933-4.5,12z M-8,8.2c-0.067,0.033-0.1,0.033-0.1,0l0.05-0.05H-8V8.2z
				 M-7.7,8.05c0,0.063,0.017,0.121,0.05,0.175c-0.036-0.054-0.069-0.113-0.1-0.175H-7.7z M-8.7,7c-0.066,0-0.133-0.017-0.2-0.05
				c0.066,0,0.133,0,0.2,0V7z M-7.05,9.25V9.3C-7.083,9.267-7.1,9.233-7.1,9.2C-7.133,9.133-7.167,9.067-7.2,9
				C-7.133,9.1-7.083,9.183-7.05,9.25z M-9.15,5.85L-9.2,5.8V5.75c0.157,0.094,0.265,0.161,0.325,0.2
				C-8.994,5.883-9.085,5.85-9.15,5.85z M-9.8,5.15V5.1c0.133,0,0.283,0.017,0.45,0.05c0,0.1,0.017,0.184,0.05,0.25h-0.05l-0.4-0.2
				L-9.8,5.15z M-9.2,4.5h-0.05c-0.033,0-0.167-0.1-0.4-0.3c0.1,0.066,0.233,0.15,0.4,0.25L-9.2,4.5z M-9.85,3.85
				c-0.167-0.1-0.333-0.167-0.5-0.2c0.067,0,0.184,0.017,0.35,0.05C-9.967,3.733-9.917,3.783-9.85,3.85z M-9.35,3.05L-9.3,3.1
				c-0.067-0.033-0.133-0.083-0.2-0.15C-9.433,2.983-9.383,3.017-9.35,3.05z M-9.95,2.75L-9.7,2.8v0.05
				C-9.8,2.817-9.883,2.783-9.95,2.75z M-10-0.35c-0.038-0.035-0.087-0.068-0.15-0.1c0.033,0,0.066,0.017,0.1,0.05L-10-0.35z
				 M-9.6-12.25h0.15c0.034,0.067,0.1,0.133,0.2,0.2c-0.033,0-0.067,0-0.1,0c-0.066-0.034-0.133-0.067-0.2-0.1L-9.6-12.25z
				 M-9.65-11.85c-0.033,0-0.05-0.017-0.05-0.05c-0.267-0.233-0.417-0.383-0.45-0.45c0.066,0,0.117-0.017,0.15-0.05
				s0.067-0.05,0.1-0.05c-0.033,0.034-0.05,0.1-0.05,0.2c0,0.067,0.05,0.133,0.15,0.2c0.033,0.033,0.117,0.083,0.25,0.15
				C-9.583-11.867-9.617-11.85-9.65-11.85z M-9.85-11.7c-0.059,0.029-0.117,0.063-0.175,0.1c0.054-0.038,0.096-0.071,0.125-0.1
				H-9.85z M-11.15-1.05c-0.033,0-0.066,0.017-0.1,0.05c0.033-0.034,0.049-0.067,0.05-0.1C-11.2-1.067-11.183-1.05-11.15-1.05z
				 M-11.55-1.45c0.066,0.067,0.133,0.133,0.2,0.2c-0.033,0.033-0.066,0.067-0.1,0.1c0,0.066,0,0.183,0,0.35
				c-0.133-0.2-0.2-0.417-0.2-0.65H-11.55z M-11.55-2.15c-0.1-0.133-0.2-0.233-0.3-0.3h0.35l0.05-0.05
				c0.034,0.033,0.083,0.067,0.15,0.1c0,0.033,0.017,0.05,0.05,0.05c-0.067,0.033-0.167,0.05-0.3,0.05
				C-11.55-2.267-11.55-2.217-11.55-2.15z M-11.95-2.05v-0.4h0.1c0.033,0.133,0.1,0.284,0.2,0.45l-0.2,0.1
				C-11.883-1.933-11.9-1.967-11.9-2L-11.95-2.05z M-12-3c-0.033-0.1-0.05-0.183-0.05-0.25l0.05-0.2c0-0.033,0.033-0.066,0.1-0.1
				c0,0.167,0.066,0.367,0.2,0.6c-0.1,0-0.167,0.034-0.2,0.1C-11.933-2.883-11.967-2.933-12-3z M-11.55-3
				c-0.133-0.2-0.233-0.383-0.3-0.55c0.067,0,0.133,0,0.2,0c0.033,0.1,0.133,0.216,0.3,0.35c-0.033,0.067-0.083,0.117-0.15,0.15
				L-11.55-3z M-11.65-2.8c0.066,0.033,0.117,0.083,0.15,0.15h-0.35C-11.75-2.75-11.683-2.8-11.65-2.8z M-10.2-1.65
				c-0.066-0.033-0.117-0.067-0.15-0.1c0.046,0.015,0.096,0.032,0.15,0.05l0.05,0.05H-10.2z M-10.85-3.25
				c0.033,0,0.083,0.017,0.15,0.05c-0.033,0-0.066,0-0.1,0L-10.85-3.25z M-11.9-3.75c0-0.033-0.033-0.133-0.1-0.3
				c-0.033-0.067-0.05-0.117-0.05-0.15c0.033,0,0.083,0,0.15,0c0.066,0.034,0.15,0.05,0.25,0.05L-11.7-4.1
				c0,0.1,0.083,0.217,0.25,0.35H-11.9z M-11.4-3.5c0,0.031,0.017,0.064,0.05,0.1c-0.035-0.036-0.069-0.069-0.1-0.1H-11.4z
				 M-11.65-4.2c-0.133-0.033-0.233-0.066-0.3-0.1c0.1,0,0.2,0.017,0.3,0.05V-4.2z M-11.8-4.5c-0.1,0.033-0.184,0.067-0.25,0.1
				c0-0.033,0.017-0.05,0.05-0.05c0.033-0.066,0.067-0.1,0.1-0.1L-11.8-4.5z M-11.55-4.55c-0.034-0.034-0.067-0.05-0.1-0.05
				c0-0.032-0.017-0.065-0.05-0.1c0.068,0.067,0.135,0.117,0.2,0.15H-11.55z M-11.8-5.15h-0.25c0-0.033-0.017-0.067-0.05-0.1h0.3
				C-11.8-5.217-11.8-5.183-11.8-5.15z M-11.45-5.35c0.034-0.033,0.05-0.066,0.05-0.1c0.033,0.067,0.066,0.117,0.1,0.15h-0.15V-5.35
				z M-12.2-5.7l-0.1,0.1c-0.1-0.066-0.184-0.167-0.25-0.3c0-0.063-0.017-0.171-0.05-0.325c0.011,0.017,0.027,0.025,0.05,0.025
				c0.066,0.133,0.2,0.284,0.4,0.45C-12.183-5.75-12.2-5.733-12.2-5.7z M-12.1-6.05c0.067,0,0.15,0.017,0.25,0.05
				c0,0.033,0,0.067,0,0.1h-0.25c-0.033-0.033-0.083-0.083-0.15-0.15H-12.1z M-12.1-5.55l0.05-0.1c0.033,0,0.066,0.017,0.1,0.05
				c0.034,0.033,0.067,0.067,0.1,0.1l0.05,0.05h-0.3C-12.1-5.483-12.1-5.517-12.1-5.55z M-11.25-5.6v0.1l-0.05-0.05L-11.25-5.6z
				 M-11.9-6.7c-0.033-0.033-0.083-0.083-0.15-0.15c-0.034,0-0.05-0.017-0.05-0.05c0.033,0,0.1,0.017,0.2,0.05
				c0,0.033,0,0.067,0,0.1V-6.7z M-12.05-6.45c-0.167-0.033-0.333-0.05-0.5-0.05l0.05-0.05h0.45V-6.45z M-12.45-6.85
				c0.034,0.033,0.067,0.05,0.1,0.05c0,0.033,0,0.066,0,0.1c-0.133,0-0.217,0-0.25,0h-0.05v-0.05c0.033-0.033,0.083-0.067,0.15-0.1
				H-12.45z M-12.4-7.1c-0.067-0.066-0.117-0.117-0.15-0.15V-7.3c0.033,0,0.066,0.017,0.1,0.05C-12.45-7.217-12.433-7.167-12.4-7.1z
				 M-12.3-7.15c0.066,0.033,0.133,0.066,0.2,0.1c-0.066,0-0.117,0-0.15,0C-12.283-7.083-12.3-7.117-12.3-7.15z M-12.5-8.75h-0.3
				l-0.05-0.05v-0.05c0.033,0,0.067-0.017,0.1-0.05c0.033,0.033,0.067,0.05,0.1,0.05C-12.617-8.817-12.567-8.783-12.5-8.75z
				 M-12.2-9.2c0-0.033,0.017-0.066,0.05-0.1c0,0.066-0.017,0.133-0.05,0.2C-12.2-9.133-12.2-9.167-12.2-9.2z M-12.7-6.95
				c0-0.066,0-0.117,0-0.15c0.034,0.033,0.083,0.083,0.15,0.15c-0.034,0-0.083,0.017-0.15,0.05V-6.95z M-13.15-9.05v-0.4
				c0.033,0,0.083-0.017,0.15-0.05v0.05c-0.033,0-0.067,0-0.1,0v0.2c0,0.033,0.033,0.083,0.1,0.15v0.05c-0.033,0-0.067,0-0.1,0
				H-13.15z M-11.35-10.5c-0.033,0-0.066,0-0.1,0v-0.05c0.034,0,0.067-0.017,0.1-0.05V-10.5z M-12.4-9.3
				c-0.033,0-0.067,0.017-0.1,0.05c-0.1-0.033-0.217-0.083-0.35-0.15c0.033-0.133,0.117-0.233,0.25-0.3
				C-12.567-9.667-12.5-9.533-12.4-9.3z M-12.2-10.15c0.167-0.067,0.284-0.1,0.35-0.1c-0.033,0.067-0.05,0.167-0.05,0.3l-0.15-0.15
				L-12.2-10.15z M-10.35-11.45l0.05,0.05h-0.05V-11.45z M-10.45-11.3h-0.05c0,0.033-0.017,0.05-0.05,0.05
				c-0.067-0.133-0.117-0.25-0.15-0.35h0.25C-10.45-11.5-10.45-11.4-10.45-11.3z M-11-11.3c0.033-0.067,0.1-0.133,0.2-0.2
				c0,0.1,0.033,0.183,0.1,0.25c-0.033,0-0.066,0-0.1,0C-10.8-11.283-10.867-11.3-11-11.3z M-10.9-11.65L-11-11.6
				c0-0.066,0.033-0.15,0.1-0.25C-10.9-11.817-10.9-11.75-10.9-11.65z M-10.3-11.85c0-0.066,0-0.149,0-0.25
				c0.001,0.033,0.018,0.05,0.05,0.05c0,0.1,0.05,0.183,0.15,0.25c-0.033,0-0.066,0-0.1,0L-10.3-11.85z M-10.75-11.75
				c-0.033-0.067-0.05-0.117-0.05-0.15c0-0.1,0.033-0.15,0.1-0.15l0.1-0.05c0,0.1,0.033,0.2,0.1,0.3
				C-10.583-11.794-10.667-11.778-10.75-11.75z M-10.2-12.35v0.05l-0.05,0.05c0-0.033-0.017-0.049-0.05-0.05
				C-10.266-12.3-10.233-12.317-10.2-12.35z M-0.85-13.85c0.2,0,0.333,0.05,0.4,0.15c-0.066,0.067-0.117,0.117-0.15,0.15
				c0,0.066,0.017,0.133,0.05,0.2c-0.1,0-0.217-0.017-0.35-0.05c0-0.1-0.017-0.217-0.05-0.35C-0.917-13.783-0.883-13.817-0.85-13.85
				z M-1.1-13.4c-0.133,0-0.267,0-0.4,0c0.067-0.067,0.167-0.15,0.3-0.25c0.067,0.033,0.1,0.1,0.1,0.2V-13.4z M-0.05-13.5
				c-0.067,0.067-0.117,0.117-0.15,0.15c-0.033,0-0.066,0-0.1,0C-0.233-13.383-0.15-13.433-0.05-13.5z M-2.5-13.4
				c-0.033-0.033-0.067-0.05-0.1-0.05c0-0.066,0-0.133,0-0.2v-0.05c0.133,0.034,0.25,0.133,0.35,0.3C-2.35-13.4-2.433-13.4-2.5-13.4
				z M-3.5-13.65h0.1c0,0.1,0,0.183,0,0.25c-0.067-0.067-0.1-0.133-0.1-0.2V-13.65z M-3.65-13.4c-0.1,0-0.184,0-0.25,0
				c-0.033-0.033-0.05-0.083-0.05-0.15c0-0.034,0.017-0.067,0.05-0.1c0.033,0.066,0.083,0.117,0.15,0.15
				C-3.717-13.467-3.683-13.433-3.65-13.4z M-3.05-13.4c0-0.067,0-0.133,0-0.2c0.033,0.067,0.066,0.133,0.1,0.2
				C-2.983-13.4-3.017-13.4-3.05-13.4z M-4.9-13.85c0.066-0.066,0.117-0.117,0.15-0.15v0.05c-0.067,0.067-0.133,0.15-0.2,0.25
				c-0.033,0-0.066,0-0.1,0C-5.017-13.767-4.967-13.817-4.9-13.85z M-4.2-13.6c0,0.067,0,0.117,0,0.15
				c-0.066-0.033-0.133-0.05-0.2-0.05c0-0.033-0.017-0.067-0.05-0.1c0.067-0.1,0.133-0.167,0.2-0.2h0.05V-13.6z M-6-13.2l-0.1-0.15
				v-0.05l0.05-0.05c0.167,0.067,0.35,0.133,0.55,0.2c-0.167,0.033-0.333,0.067-0.5,0.1V-13.2z M-5.15-13.55c0.034,0,0.067,0,0.1,0
				L-5.1-13.5C-5.1-13.532-5.117-13.549-5.15-13.55z M-8.6-12.6h-0.1c-0.066,0-0.117,0-0.15,0s-0.066,0-0.1,0
				c-0.066-0.066-0.15-0.1-0.25-0.1c0.034-0.033,0.117-0.083,0.25-0.15c0.1-0.033,0.167-0.05,0.2-0.05c0,0.066,0.033,0.133,0.1,0.2
				C-8.65-12.667-8.633-12.633-8.6-12.6z M-8.6-12.9c0.033-0.033,0.067-0.05,0.1-0.05c0,0.067,0,0.133,0,0.2L-8.6-12.9z
				 M-7.75-13.15H-8v-0.05L-7.75-13.15z"/>
		</g>
	</g>
</symbol>
<symbol  id="Chick_x5F_eyewhite" viewBox="-2.8 -3.15 5.65 6.25">
	<g id="Layer_1_4_">
		<g>
			<path style="fill-rule:evenodd;clip-rule:evenodd;" d="M0.1,3.1c0.767,0,1.417-0.3,1.95-0.9c0.534-0.567,0.8-1.267,0.8-2.1
				c0-0.8-0.267-1.483-0.8-2.05c-0.533-0.6-1.183-0.9-1.95-0.9s-1.417,0.3-1.95,0.9C-2.417-1.383-2.7-0.7-2.7,0.1
				c0,0.833,0.284,1.533,0.85,2.1C-1.317,2.8-0.667,3.1,0.1,3.1z"/>
		</g>
		<g>
			<path style="fill-rule:evenodd;clip-rule:evenodd;fill:#FFFFFF;" d="M0,2.75c0.767,0,1.417-0.283,1.95-0.85
				c0.533-0.566,0.8-1.267,0.8-2.1c0-0.8-0.267-1.483-0.8-2.05C1.417-2.85,0.767-3.15,0-3.15s-1.417,0.3-1.95,0.9
				C-2.517-1.683-2.8-1-2.8-0.2c0,0.833,0.283,1.534,0.85,2.1C-1.417,2.467-0.767,2.75,0,2.75z"/>
		</g>
	</g>
</symbol>
<symbol  id="Chick_x5F_foot" viewBox="-2.5 -3.5 5.1 6.95">
	<g id="Layer_1_6_">
		<g>
			<path style="fill-rule:evenodd;clip-rule:evenodd;fill:#993300;" d="M1.05,1.05C0.783,0.917,0.483,0.767,0.15,0.6
				c-0.633-0.4-1.1-0.767-1.4-1.1c-0.133-0.167-0.267-0.433-0.4-0.8c-0.033-0.034-0.033-0.2,0-0.5c0.033-0.067,0.066-0.184,0.1-0.35
				C-1.45-2.383-1.4-2.567-1.4-2.7v-0.05c0.033-0.1,0.05-0.2,0.05-0.3c0-0.133,0-0.25,0-0.35C-1.417-3.433-1.467-3.467-1.5-3.5
				l-0.15,0.05H-1.7C-2.067-2.483-2.283-1.867-2.35-1.6C-2.417-1.367-2.467-1.083-2.5-0.75c0,0.233,0,0.467,0,0.7
				c0,0.733,0.15,1.4,0.45,2c0.367,0.767,0.95,1.267,1.75,1.5l0.05-0.05c-0.767-0.5-1.3-1.133-1.6-1.9
				c-0.133-0.3-0.2-0.683-0.2-1.15C-2.017,0.717-1.6,1.3-0.8,2.1C0.1,2.9,1.233,3.2,2.6,3C0.867,2.6-0.333,1.9-1,0.9
				c-0.167-0.267-0.283-0.55-0.35-0.85c0.667,0.733,1.467,1.117,2.4,1.15V1.05z"/>
		</g>
	</g>
</symbol>
<symbol  id="Chick_x5F_pupil" viewBox="-1.555 -1.655 3.207 3.307">
	<g id="Layer_1_3_">
		<path style="fill-rule:evenodd;clip-rule:evenodd;" d="M1.55,0.75c0.164-0.55,0.13-1.1-0.1-1.65C1.396-0.983,1.33-1.066,1.25-1.15
			c-0.297-0.302-0.664-0.468-1.1-0.5c-0.433-0.033-0.8,0.1-1.1,0.4c-0.333,0.3-0.533,0.683-0.6,1.15
			C-1.583,0.367-1.467,0.767-1.2,1.1c0.3,0.333,0.667,0.517,1.1,0.55c0.046,0.003,0.088,0.003,0.125,0
			C0.659,1.665,1.167,1.364,1.55,0.75z M0.275,0.775C0.065,1.058-0.193,1.183-0.5,1.15c-0.1,0-0.25-0.083-0.45-0.25
			C-1.017,0.867-1.067,0.8-1.1,0.7c-0.167-0.367-0.1-0.667,0.2-0.9l-0.025-0.025c0.367-0.44,0.708-0.457,1.025-0.05
			C0.42,0.138,0.479,0.488,0.275,0.775z"/>
		<path style="fill-rule:evenodd;clip-rule:evenodd;fill:#FFFFFF;" d="M0.275,0.775C0.479,0.488,0.42,0.138,0.1-0.275
			c-0.316-0.407-0.658-0.39-1.025,0.05L-0.9-0.2c-0.3,0.233-0.367,0.534-0.2,0.9c0.033,0.1,0.083,0.167,0.15,0.2
			c0.2,0.167,0.35,0.25,0.45,0.25C-0.193,1.183,0.065,1.058,0.275,0.775z"/>
	</g>
</symbol>
<symbol  id="Chick_x5F_wing" viewBox="-4.3 -2.656 8.664 5.206">
	<g id="Layer_1_2_">
		<path style="fill-rule:evenodd;clip-rule:evenodd;fill:#AE5215;" d="M1.775,2.225C1.676,2.291,1.584,2.349,1.5,2.4
			c0.6-0.2,1.2-0.517,1.8-0.95C3.933,1.017,4.283,0.567,4.35,0.1c0.066-0.467-0.1-0.85-0.5-1.15C3.45-1.383,3.1-1.517,2.8-1.45
			c-0.1-0.733-0.533-1.066-1.3-1C1.1-2.417,0.717-2.3,0.35-2.1H0.3c-0.867-0.533-1.55-0.683-2.05-0.45
			c-0.533,0.267-0.867,0.617-1,1.05c-0.1,0.167-0.1,0.317,0,0.45c-0.8,0.066-1.3,0.2-1.5,0.4C-4.283-0.617-4.3-0.483-4.3-0.25
			c0,0.567,0.35,1.133,1.05,1.7c0.464,0.371,1.039,0.696,1.725,0.975C-1.464,2.453-1.406,2.478-1.35,2.5
			c-0.073-0.046-0.147-0.088-0.225-0.125C-2.198,1.958-2.689,1.6-3.05,1.3C-3.75,0.733-4.1,0.217-4.1-0.25
			c0-0.133,0.017-0.217,0.05-0.25c0.066-0.067,0.216-0.133,0.45-0.2h0.95c0.4,0.6,0.75,0.9,1.05,0.9c0.267,0,0.4-0.034,0.4-0.1
			c0.1-0.2-0.017-0.417-0.35-0.65C-1.917-0.783-2.183-0.9-2.35-0.9c-0.133-0.233-0.2-0.417-0.2-0.55L-2.5-1.5
			c0.567-0.733,1.283-0.917,2.15-0.55C-0.217-2.017-0.1-1.967,0-1.9l-0.25,0.45c0,0.034,0,0.083,0,0.15c0,0.1,0.017,0.2,0.05,0.3
			c0.034,0.067,0.133,0.2,0.3,0.4c0.267,0.233,0.5,0.233,0.7,0c0.034-0.033,0.05-0.066,0.05-0.1c0-0.033,0-0.117,0-0.25
			S0.817-1.2,0.75-1.3c0-0.067-0.017-0.117-0.05-0.15l-0.1-0.4C1.1-2.15,1.633-2.2,2.2-2c0.1,0.067,0.183,0.15,0.25,0.25l0.1,0.25
			c-0.133,0.033-0.233,0.05-0.3,0.05C1.817-1.417,1.567-1.167,1.5-0.7C1.433-0.5,1.483-0.367,1.65-0.3c0,0.033,0.05,0.05,0.15,0.05
			c0.167,0,0.383-0.017,0.65-0.05C2.617-0.333,2.767-0.45,2.9-0.65c0.033-0.1,0.083-0.233,0.15-0.4
			c0.233,0.033,0.434,0.216,0.6,0.55C3.817-0.233,3.9,0,3.9,0.2c0,0.36-0.575,0.943-1.725,1.75C2.146,1.969,2.121,1.985,2.1,2
			C1.985,2.082,1.876,2.157,1.775,2.225z M1.95-0.6C1.65-0.733,1.7-0.9,2.1-1.1l0.65,0.05C2.617-0.883,2.533-0.767,2.5-0.7
			C2.333-0.533,2.15-0.5,1.95-0.6z M0.6-0.85c-0.133,0.067-0.267,0.033-0.4-0.1S0-1.2,0-1.3c0-0.067,0.017-0.117,0.05-0.15V-1.5
			c0-0.067,0.034-0.117,0.1-0.15C0.183-1.683,0.233-1.7,0.3-1.7h0.05l0.1,0.25c0,0.034,0.017,0.067,0.05,0.1
			C0.567-1.183,0.6-1.033,0.6-0.9V-0.85z M-2.2-0.5l-0.05-0.15c0.167,0,0.317,0.05,0.45,0.15c0.033,0.033,0.167,0.167,0.4,0.4v0.05
			c-0.067,0-0.2-0.067-0.4-0.2C-2-0.35-2.133-0.433-2.2-0.5z"/>
		<path style="fill-rule:evenodd;clip-rule:evenodd;fill:#FFCC00;" d="M-1.525,2.425C-1.476,2.491-1.434,2.533-1.4,2.55L1.1,2.5
			l0.675-0.275C1.876,2.157,1.985,2.082,2.1,2c0.021-0.015,0.046-0.031,0.075-0.05C3.325,1.144,3.9,0.56,3.9,0.2
			c0-0.2-0.083-0.434-0.25-0.7c-0.167-0.333-0.367-0.517-0.6-0.55c-0.066,0.167-0.117,0.3-0.15,0.4C2.767-0.45,2.617-0.333,2.45-0.3
			C2.183-0.267,1.967-0.25,1.8-0.25c-0.1,0-0.15-0.017-0.15-0.05C1.483-0.367,1.433-0.5,1.5-0.7c0.067-0.466,0.317-0.716,0.75-0.75
			c0.067,0,0.167-0.017,0.3-0.05l-0.1-0.25C2.383-1.85,2.3-1.933,2.2-2C1.633-2.2,1.1-2.15,0.6-1.85l0.1,0.4
			C0.733-1.417,0.75-1.367,0.75-1.3c0.067,0.1,0.1,0.216,0.1,0.35s0,0.217,0,0.25c0,0.034-0.017,0.067-0.05,0.1
			c-0.2,0.233-0.433,0.233-0.7,0C-0.067-0.8-0.167-0.933-0.2-1c-0.033-0.1-0.05-0.2-0.05-0.3c0-0.067,0-0.117,0-0.15L0-1.9
			c-0.1-0.067-0.217-0.117-0.35-0.15C-1.217-2.417-1.933-2.233-2.5-1.5l-0.05,0.05c0,0.133,0.066,0.317,0.2,0.55
			c0.167,0,0.434,0.117,0.8,0.35C-1.217-0.317-1.1-0.1-1.2,0.1c0,0.066-0.133,0.1-0.4,0.1c-0.3,0-0.65-0.3-1.05-0.9H-3.6
			c-0.233,0.067-0.383,0.133-0.45,0.2C-4.083-0.467-4.1-0.383-4.1-0.25c0,0.467,0.35,0.983,1.05,1.55
			c0.36,0.3,0.852,0.659,1.475,1.075C-1.498,2.412-1.423,2.454-1.35,2.5C-1.406,2.478-1.464,2.453-1.525,2.425z M-2.2-0.5
			C-2.133-0.433-2-0.35-1.8-0.25c0.2,0.133,0.333,0.2,0.4,0.2V-0.1c-0.233-0.233-0.367-0.367-0.4-0.4
			c-0.133-0.1-0.284-0.15-0.45-0.15L-2.2-0.5z M0.6-0.85V-0.9c0-0.133-0.033-0.283-0.1-0.45c-0.033-0.033-0.05-0.066-0.05-0.1
			L0.35-1.7H0.3c-0.066,0-0.117,0.017-0.15,0.05c-0.066,0.033-0.1,0.083-0.1,0.15v0.05C0.017-1.417,0-1.367,0-1.3
			c0,0.1,0.067,0.216,0.2,0.35S0.467-0.783,0.6-0.85z M1.95-0.6c0.2,0.1,0.383,0.067,0.55-0.1c0.033-0.066,0.117-0.183,0.25-0.35
			L2.1-1.1C1.7-0.9,1.65-0.733,1.95-0.6z"/>
	</g>
</symbol>
<symbol  id="chick_x5F_wing_x5F_flap" viewBox="-4.35 -3.267 8.664 5.911">
	<g id="Layer_1_8_">
		
			<use xlink:href="#Chick_x5F_wing"  width="8.664" height="5.206" x="-4.3" y="-2.656" transform="matrix(1 0 0 1.1354 -0.0498 -0.2505)" style="overflow:visible;"/>
	</g>
</symbol>
<use xlink:href="#Chick_1_"  width="91" height="76" id="chick" x="-34" y="-65" transform="matrix(1 0 0 -1 3.6001 9.6001)" style="overflow:visible;"/>
</svg>
