<?xml version="1.0" encoding="iso-8859-1"?>
<!-- Generator: Adobe Illustrator 15.1.0, SVG Export Plug-In . SVG Version: 6.00 Build 0)  -->
<!DOCTYPE svg PUBLIC "-//W3C//DTD SVG 1.1//EN" "http://www.w3.org/Graphics/SVG/1.1/DTD/svg11.dtd">
<svg version="1.1" id="flash0.ai" xmlns="http://www.w3.org/2000/svg" xmlns:xlink="http://www.w3.org/1999/xlink" x="0px" y="0px"
	 width="48.05px" height="32.5px" viewBox="0 0 48.05 32.5" style="enable-background:new 0 0 48.05 32.5;" xml:space="preserve">
<symbol  id="flash0.ai_x5F_3_x2F_Layer_18_copy_x2F__x3C_Path_x3E_" viewBox="0 -2.2 13.8 2.2">
	<g id="Layer_1_3_">
		<path style="fill-rule:evenodd;clip-rule:evenodd;fill:#E7E7E9;" d="M6.9,0c1.9,0,3.533-0.15,4.9-0.45c1.333-0.267,2-0.6,2-1
			c0-0.3-0.333-0.55-1-0.75c-2.1,0.7-4.433,1.017-7,0.95c-2.566-0.067-4.316-0.333-5.25-0.8C0.183-1.85,0-1.65,0-1.45
			c0,0.4,0.683,0.733,2.05,1C3.383-0.15,5,0,6.9,0z"/>
	</g>
</symbol>
<symbol  id="flash0.ai_x5F_3_x2F_Layer_18_copy_x2F__x3C_Path_x3E__x5F_23" viewBox="0 -5.75 18.85 5.75">
	<g id="Layer_1_2_">
		<path style="fill-rule:evenodd;clip-rule:evenodd;" d="M18.85-2.9c0-0.767-0.917-1.434-2.75-2c-1.833-0.567-4.05-0.85-6.65-0.85
			c-2.6,0-4.833,0.283-6.7,0.85C0.917-4.333,0-3.667,0-2.9c0,0.8,0.917,1.483,2.75,2.05C4.583-0.283,6.817,0,9.45,0
			c2.6,0,4.816-0.283,6.65-0.85C17.933-1.417,18.85-2.1,18.85-2.9z"/>
	</g>
</symbol>
<linearGradient id="SVGID_1_" gradientUnits="userSpaceOnUse" x1="0" y1="16.5" x2="33.5" y2="16.5">
	<stop  offset="0" style="stop-color:#FFFFFF"/>
	<stop  offset="1" style="stop-color:#CACBCD"/>
</linearGradient>
<path style="fill-rule:evenodd;clip-rule:evenodd;fill:url(#SVGID_1_);" d="M33.55,16.5c0,1.866-1.633,3.45-4.899,4.75
	c-3.301,1.3-7.267,1.95-11.9,1.95S8.167,22.55,4.9,21.25S0,18.366,0,16.5c0-1.833,1.633-3.417,4.9-4.75
	c3.267-1.3,7.217-1.95,11.85-1.95s8.6,0.65,11.9,1.95C31.917,13.083,33.55,14.667,33.55,16.5z"/>
<linearGradient id="SVGID_2_" gradientUnits="userSpaceOnUse" x1="-31.4248" y1="-16.0249" x2="-2.2748" y2="-16.0249" gradientTransform="matrix(-1 0 0 -1 0 0)">
	<stop  offset="0" style="stop-color:#FFFFFF"/>
	<stop  offset="1" style="stop-color:#CACBCD"/>
</linearGradient>
<path style="fill-rule:evenodd;clip-rule:evenodd;fill:url(#SVGID_2_);" d="M32.55,16.05c0,1.733-1.517,3.2-4.55,4.4
	c-3.066,1.2-6.75,1.8-11.05,1.8c-4.333,0-8.017-0.6-11.05-1.8c-3.066-1.2-4.6-2.667-4.6-4.4c0-1.733,1.534-3.2,4.6-4.4
	c3.033-1.233,6.717-1.85,11.05-1.85c4.3,0,7.983,0.617,11.05,1.85C31.033,12.85,32.55,14.317,32.55,16.05z"/>
<use xlink:href="#flash0.ai_x5F_3_x2F_Layer_18_copy_x2F__x3C_Path_x3E__x5F_23"  width="18.85" height="5.75" y="-5.75" transform="matrix(1 0 0 -1 8 13.0498)" style="overflow:visible;opacity:0.2891;enable-background:new    ;"/>
<linearGradient id="SVGID_3_" gradientUnits="userSpaceOnUse" x1="4.0742" y1="-25.9385" x2="12.0742" y2="-25.9385" gradientTransform="matrix(1.250000e-004 1 -1 -0.001 -4.822999e-004 -1.966525e-004)">
	<stop  offset="0" style="stop-color:#B3B5B5"/>
	<stop  offset="1" style="stop-color:#B7B9BA"/>
</linearGradient>
<path style="fill-rule:evenodd;clip-rule:evenodd;fill:url(#SVGID_3_);" d="M28.75,3.6c0.8,0.667,0.983,1.867,0.55,3.6
	c-0.5,2.033-1.783,4-3.85,5.9c-1.9,1.767-2.934,2.05-3.1,0.85l0.35-2.3l1.45-0.35c1.199-0.466,2.283-1.333,3.25-2.6
	c0.699-0.9,1.033-1.9,1-3c0-1.1-0.367-1.65-1.101-1.65c-0.6,0-1.25,0.434-1.95,1.3l-0.899,1.3l-0.4-2.35c0.566-0.6,1.3-1,2.2-1.2
	C27.283,2.867,28.116,3.033,28.75,3.6z"/>
<linearGradient id="SVGID_4_" gradientUnits="userSpaceOnUse" x1="4.0742" y1="-25.6084" x2="11.6742" y2="-25.6084" gradientTransform="matrix(1.315790e-004 1 -1 -0.001 -4.563740e-004 -1.966525e-004)">
	<stop  offset="0" style="stop-color:#C7C9C9"/>
	<stop  offset="1" style="stop-color:#CFD0D1"/>
</linearGradient>
<path style="fill-rule:evenodd;clip-rule:evenodd;fill:url(#SVGID_4_);" d="M28.2,3.6c0.7,0.667,0.85,1.816,0.45,3.45
	c-0.467,1.9-1.634,3.767-3.5,5.6c-1.7,1.667-2.634,1.95-2.8,0.85l0.3-2.2L24,10.95c1.066-0.467,2.05-1.3,2.95-2.5
	c0.666-0.867,0.983-1.817,0.95-2.85c-0.034-1.033-0.384-1.55-1.051-1.55c-0.533,0-1.116,0.417-1.75,1.25l-0.8,1.2l-0.4-2.2
	c0.5-0.566,1.167-0.95,2-1.15C26.833,2.95,27.6,3.1,28.2,3.6z"/>
<linearGradient id="SVGID_5_" gradientUnits="userSpaceOnUse" x1="24.5371" y1="7.168" x2="29.9621" y2="7.168">
	<stop  offset="0" style="stop-color:#D8DBDB"/>
	<stop  offset="0.1412" style="stop-color:#FCFFFF"/>
	<stop  offset="1" style="stop-color:#B7B9BA"/>
</linearGradient>
<path style="fill-rule:evenodd;clip-rule:evenodd;fill:url(#SVGID_5_);" d="M26.65,3.55c-0.9,0.267-1.567,0.75-2,1.45L24.3,5.95
	L23.65,4.7C23.783,4.533,24,4.133,24.3,3.5c0.467-0.567,1.233-0.9,2.3-1c1.067-0.1,1.917,0.333,2.551,1.3
	c0.633,0.967,0.783,2.05,0.449,3.25c-0.399,1.4-1.216,2.833-2.449,4.3l-0.476,0.5c0.263-0.326,0.521-0.676,0.775-1.05
	c1.3-1.867,1.85-3.65,1.649-5.35c-0.066-0.6-0.267-1.083-0.6-1.45C28.033,3.467,27.417,3.317,26.65,3.55z"/>
<path style="fill-rule:evenodd;clip-rule:evenodd;fill:#FFFFFF;" d="M26.2,2.75c0.8-0.1,1.283-0.05,1.45,0.15
	c0.166,0.233,0.05,0.35-0.351,0.35c-0.133,0-0.483,0.083-1.05,0.25c-0.467,0.133-0.767,0.15-0.9,0.05
	C25.184,3.417,25.2,3.267,25.4,3.1C25.634,2.9,25.9,2.783,26.2,2.75z"/>
<linearGradient id="SVGID_6_" gradientUnits="userSpaceOnUse" x1="7.3501" y1="10.0249" x2="24.8496" y2="10.0249">
	<stop  offset="0" style="stop-color:#D0D1D3"/>
	<stop  offset="0.2431" style="stop-color:#FFFFFF"/>
	<stop  offset="1" style="stop-color:#CACBCD"/>
</linearGradient>
<path style="fill-rule:evenodd;clip-rule:evenodd;fill:url(#SVGID_6_);" d="M24.5,2.25c0.233,0.3,0.35,1.4,0.35,3.3v8.8
	c-0.199,1.033-0.683,1.7-1.45,2c-1.467,0.966-3.9,1.45-7.3,1.45c-3.467,0-5.934-0.5-7.4-1.5c-0.434-0.233-0.784-0.633-1.05-1.2
	l-0.3-0.75v-8.8c0-1.9,0.133-3,0.4-3.3H24.5z"/>
<linearGradient id="SVGID_7_" gradientUnits="userSpaceOnUse" x1="7.8999" y1="2.7002" x2="24.4749" y2="2.7002">
	<stop  offset="0" style="stop-color:#CACBCD"/>
	<stop  offset="0.7804" style="stop-color:#FCFCFC"/>
	<stop  offset="1" style="stop-color:#D8D9DB"/>
</linearGradient>
<path style="fill-rule:evenodd;clip-rule:evenodd;fill:url(#SVGID_7_);" d="M24.45,2.7c0,0.7-0.8,1.3-2.4,1.8
	C20.417,5,18.467,5.25,16.2,5.25c-2.3,0-4.25-0.25-5.85-0.75C8.717,4,7.9,3.4,7.9,2.7c0-0.7,0.817-1.3,2.45-1.8
	c1.6-0.5,3.55-0.75,5.85-0.75c2.267,0,4.216,0.25,5.85,0.75C23.65,1.4,24.45,2,24.45,2.7z"/>
<path style="fill-rule:evenodd;clip-rule:evenodd;fill:#B76F35;" d="M23.9,3.5c0,0.4-0.267,0.6-0.8,0.6
	c-0.133,0.033-5.017-0.05-14.65-0.25l0.1-0.5C8.717,2.95,9.133,2.6,9.8,2.3c0.7-0.333,1.583-0.566,2.65-0.7
	c0.233-0.033,1.167-0.117,2.8-0.25c0.7-0.033,1.6-0.017,2.7,0.05c1.267,0.1,2,0.15,2.2,0.15c0.833,0.034,1.6,0.217,2.3,0.55
	C23.417,2.6,23.9,3.067,23.9,3.5z"/>
<path style="fill-rule:evenodd;clip-rule:evenodd;fill:#2B130B;" d="M21.5,2.1c0,0.267-0.117,0.4-0.35,0.4S20.8,2.367,20.8,2.1
	c0-0.233,0.117-0.35,0.35-0.35S21.5,1.867,21.5,2.1z"/>
<path style="fill-rule:evenodd;clip-rule:evenodd;fill:#2B130B;" d="M20.6,1.95c0,0.167-0.083,0.25-0.25,0.25
	c-0.167,0-0.25-0.083-0.25-0.25c0-0.133,0.083-0.2,0.25-0.2C20.517,1.75,20.6,1.817,20.6,1.95z"/>
<path style="fill-rule:evenodd;clip-rule:evenodd;fill:#2B130B;" d="M22.9,2.9c0,0.1-0.05,0.15-0.15,0.15S22.6,3,22.6,2.9
	s0.05-0.15,0.15-0.15S22.9,2.8,22.9,2.9z"/>
<path style="fill-rule:evenodd;clip-rule:evenodd;fill:#2B130B;" d="M23.55,3.1c0,0.133-0.083,0.2-0.25,0.2
	c-0.133,0-0.2-0.066-0.2-0.2c0-0.167,0.066-0.25,0.2-0.25C23.467,2.85,23.55,2.933,23.55,3.1z"/>
<path style="fill-rule:evenodd;clip-rule:evenodd;fill:#2B130B;" d="M12.35,2.15c0,0.233-0.1,0.35-0.3,0.35
	c-0.233,0-0.35-0.117-0.35-0.35s0.117-0.35,0.35-0.35C12.25,1.8,12.35,1.917,12.35,2.15z"/>
<path style="fill-rule:evenodd;clip-rule:evenodd;fill:#2B130B;" d="M12.7,1.9L12.6,2l-0.1-0.1c0-0.1,0.033-0.15,0.1-0.15
	C12.667,1.75,12.7,1.8,12.7,1.9z"/>
<path style="fill-rule:evenodd;clip-rule:evenodd;fill:#2B130B;" d="M15.7,1.8c0,0.167-0.083,0.25-0.25,0.25
	c-0.167,0-0.25-0.083-0.25-0.25c0-0.167,0.083-0.25,0.25-0.25C15.617,1.55,15.7,1.633,15.7,1.8z"/>
<path style="fill-rule:evenodd;clip-rule:evenodd;fill:#2B130B;" d="M16.4,1.9c0,0.133-0.083,0.2-0.25,0.2
	c-0.167,0-0.25-0.067-0.25-0.2c0-0.167,0.083-0.25,0.25-0.25C16.317,1.65,16.4,1.733,16.4,1.9z"/>
<path style="fill-rule:evenodd;clip-rule:evenodd;fill:#2B130B;" d="M16.8,1.7c0,0.1-0.05,0.15-0.15,0.15S16.5,1.8,16.5,1.7
	c0-0.1,0.05-0.15,0.15-0.15S16.8,1.6,16.8,1.7z"/>
<path style="fill-rule:evenodd;clip-rule:evenodd;fill:#2B130B;" d="M18.8,2c0,0.133-0.083,0.2-0.25,0.2c-0.133,0-0.2-0.067-0.2-0.2
	c0-0.167,0.066-0.25,0.2-0.25C18.717,1.75,18.8,1.833,18.8,2z"/>
<path style="fill-rule:evenodd;clip-rule:evenodd;fill:#2B130B;" d="M19.3,2.1c0,0.066-0.05,0.1-0.15,0.1L19,2.1
	c0-0.1,0.05-0.15,0.15-0.15S19.3,2,19.3,2.1z"/>
<path style="fill-rule:evenodd;clip-rule:evenodd;fill:#2B130B;" d="M10.65,2.65c0,0.133-0.083,0.2-0.25,0.2
	c-0.133,0-0.2-0.067-0.2-0.2s0.066-0.2,0.2-0.2C10.567,2.45,10.65,2.517,10.65,2.65z"/>
<path style="fill-rule:evenodd;clip-rule:evenodd;fill:#2B130B;" d="M9.65,3c0,0.2-0.1,0.3-0.3,0.3c-0.2,0-0.3-0.1-0.3-0.3
	c0-0.167,0.1-0.25,0.3-0.25C9.55,2.75,9.65,2.833,9.65,3z"/>
<path style="fill-rule:evenodd;clip-rule:evenodd;fill:#2B130B;" d="M9,3.5c0,0.067-0.05,0.1-0.15,0.1l-0.1-0.1
	c0-0.1,0.033-0.15,0.1-0.15C8.95,3.35,9,3.4,9,3.5z"/>
<radialGradient id="SVGID_8_" cx="-4.9302" cy="16.8994" r="4.1084" gradientTransform="matrix(0.0639 -0.998 -0.998 -0.0639 33.7297 2.1596)" gradientUnits="userSpaceOnUse">
	<stop  offset="0" style="stop-color:#572000"/>
	<stop  offset="1" style="stop-color:#2B130B"/>
</radialGradient>
<path style="fill-rule:evenodd;clip-rule:evenodd;fill:url(#SVGID_8_);" d="M23.2,3.7c0,0.4-0.667,0.75-2,1.05
	c-1.367,0.267-3,0.4-4.9,0.4c-1.9,0-3.517-0.133-4.85-0.4C10.083,4.45,9.4,4.1,9.4,3.7c0-0.4,0.684-0.733,2.05-1
	c1.333-0.3,2.95-0.45,4.85-0.45c1.9,0,3.534,0.15,4.9,0.45C22.533,2.967,23.2,3.3,23.2,3.7z"/>
<use xlink:href="#flash0.ai_x5F_3_x2F_Layer_18_copy_x2F__x3C_Path_x3E_"  width="13.8" height="2.2" y="-2.2" transform="matrix(1 0 0 -1 9.3999 2.25)" style="overflow:visible;opacity:0.1211;enable-background:new    ;"/>
<path style="fill-rule:evenodd;clip-rule:evenodd;fill:#FFF0F0;" d="M22.15,0.8c1.667,0.534,2.5,1.184,2.5,1.95s-0.833,1.4-2.5,1.9
	c-1.667,0.533-3.683,0.8-6.05,0.8s-4.383-0.267-6.05-0.8c-1.667-0.533-2.5-1.167-2.5-1.9c0-0.767,0.833-1.417,2.5-1.95
	C11.717,0.267,13.733,0,16.1,0C18.5,0,20.517,0.267,22.15,0.8z M21.85,4.3c1.566-0.433,2.35-0.983,2.35-1.65
	c0-0.633-0.784-1.183-2.35-1.65c-1.567-0.433-3.45-0.65-5.65-0.65c-2.2,0-4.067,0.217-5.6,0.65C9.033,1.467,8.25,2.017,8.25,2.65
	c0,0.667,0.783,1.217,2.35,1.65C12.133,4.767,14,5,16.2,5C18.4,5,20.283,4.767,21.85,4.3z"/>
</svg>
