<?xml version="1.0" encoding="UTF-8" standalone="no"?>
<!-- Created with Inkscape (http://www.inkscape.org/) -->

<svg
   xmlns:dc="http://purl.org/dc/elements/1.1/"
   xmlns:cc="http://creativecommons.org/ns#"
   xmlns:rdf="http://www.w3.org/1999/02/22-rdf-syntax-ns#"
   xmlns:svg="http://www.w3.org/2000/svg"
   xmlns="http://www.w3.org/2000/svg"
   xmlns:xlink="http://www.w3.org/1999/xlink"
   xmlns:sodipodi="http://sodipodi.sourceforge.net/DTD/sodipodi-0.dtd"
   xmlns:inkscape="http://www.inkscape.org/namespaces/inkscape"
   width="30"
   height="30"
   viewBox="0 0 30 30"
   id="svg4709"
   version="1.1"
   inkscape:version="0.91 r13725"
   sodipodi:docname="zoom_out.svg">
  <defs
     id="defs4711">
    <inkscape:path-effect
       effect="spiro"
       id="path-effect5278"
       is_visible="true" />
    <filter
       height="1.945"
       y="-.473"
       width="1.859"
       x="-.429"
       id="a">
      <feGaussianBlur
         id="feGaussianBlur6069"
         stdDeviation="3.023" />
    </filter>
    <filter
       height="1.945"
       y="-.473"
       width="1.859"
       x="-.429"
       id="b"
       color-interpolation-filters="sRGB">
      <feGaussianBlur
         id="feGaussianBlur6072"
         stdDeviation="3.023" />
    </filter>
    <linearGradient
       id="linearGradient4339"
       inkscape:collect="always">
      <stop
         id="stop4341"
         offset="0"
         style="stop-color:#000000;stop-opacity:1" />
      <stop
         id="stop4343"
         offset="1"
         style="stop-color:#545454;stop-opacity:1" />
    </linearGradient>
    <linearGradient
       inkscape:collect="always"
       id="linearGradient4317">
      <stop
         style="stop-color:#8f8f8f;stop-opacity:1"
         offset="0"
         id="stop4333" />
      <stop
         style="stop-color:#545454;stop-opacity:1"
         offset="1"
         id="stop4335" />
    </linearGradient>
    <linearGradient
       inkscape:collect="always"
       id="linearGradient4283">
      <stop
         style="stop-color:#767676;stop-opacity:1"
         offset="0"
         id="stop4311" />
      <stop
         style="stop-color:#f6f6f6;stop-opacity:1"
         offset="1"
         id="stop4313" />
    </linearGradient>
    <linearGradient
       id="linearGradient4273"
       inkscape:collect="always">
      <stop
         id="stop4275"
         offset="0"
         style="stop-color:#ffffff;stop-opacity:1" />
      <stop
         id="stop4277"
         offset="1"
         style="stop-color:#c8dfe7;stop-opacity:1" />
    </linearGradient>
    <linearGradient
       gradientTransform="matrix(0.87178352,0,0,0.87178352,75.587334,109.01424)"
       gradientUnits="userSpaceOnUse"
       y2="867.51849"
       x2="598.08929"
       y1="852.47827"
       x1="582.3468"
       id="linearGradient4281"
       xlink:href="#linearGradient4273"
       inkscape:collect="always" />
    <linearGradient
       gradientTransform="matrix(0.87178352,0,0,0.87178352,75.976523,109.40343)"
       gradientUnits="userSpaceOnUse"
       y2="847.78638"
       x2="587.73218"
       y1="870.86676"
       x1="594.41077"
       id="linearGradient4293"
       xlink:href="#linearGradient4283"
       inkscape:collect="always" />
    <radialGradient
       gradientUnits="userSpaceOnUse"
       gradientTransform="matrix(1.396458,0,0,1.483212,-315.32445,-275.15911)"
       r="4.2332001"
       fy="858.86737"
       fx="589.86066"
       cy="858.86737"
       cx="589.86066"
       id="radialGradient4307"
       xlink:href="#linearGradient4317"
       inkscape:collect="always" />
    <linearGradient
       gradientUnits="userSpaceOnUse"
       y2="196.26909"
       x2="1031.037"
       y1="202.52565"
       x1="1043.4062"
       id="linearGradient4329"
       xlink:href="#linearGradient4339"
       inkscape:collect="always" />
    <radialGradient
       inkscape:collect="always"
       xlink:href="#linearGradient4317"
       id="radialGradient6456"
       gradientUnits="userSpaceOnUse"
       gradientTransform="matrix(1.396458,0,0,1.483212,-315.32445,-275.15911)"
       cx="589.86066"
       cy="858.86737"
       fx="589.86066"
       fy="858.86737"
       r="4.2332001" />
  </defs>
  <sodipodi:namedview
     id="base"
     pagecolor="#ffffff"
     bordercolor="#666666"
     borderopacity="1.0"
     inkscape:pageopacity="0.0"
     inkscape:pageshadow="2"
     inkscape:zoom="11.2"
     inkscape:cx="19.911897"
     inkscape:cy="9.7924998"
     inkscape:document-units="px"
     inkscape:current-layer="layer1"
     showgrid="false"
     units="px"
     inkscape:window-width="1271"
     inkscape:window-height="728"
     inkscape:window-x="1674"
     inkscape:window-y="107"
     inkscape:window-maximized="0" />
  <metadata
     id="metadata4714">
    <rdf:RDF>
      <cc:Work
         rdf:about="">
        <dc:format>image/svg+xml</dc:format>
        <dc:type
           rdf:resource="http://purl.org/dc/dcmitype/StillImage" />
        <dc:title></dc:title>
      </cc:Work>
    </rdf:RDF>
  </metadata>
  <g
     inkscape:label="Layer 1"
     inkscape:groupmode="layer"
     id="layer1"
     transform="translate(0,-1022.3622)">
    <g
       transform="translate(-577.8494,175.15916)"
       style="opacity:1"
       inkscape:label="Layer 2"
       id="layer2">
      <rect
         rx="3.5888181"
         transform="matrix(0.71347068,0.70068508,-0.70068508,0.71347068,0,0)"
         ry="2.0031538"
         y="196.85112"
         x="1030.2328"
         height="6.4387083"
         width="12.734335"
         id="rect4295"
         style="opacity:1;fill:url(#linearGradient4329);fill-opacity:1;fill-rule:nonzero;stroke:#767676;stroke-width:0;stroke-linecap:round;stroke-linejoin:round;stroke-miterlimit:4;stroke-dasharray:none;stroke-opacity:1" />
      <circle
         r="8.4648619"
         cy="858.9588"
         cx="589.88123"
         id="path4271"
         style="opacity:1;fill:url(#linearGradient4281);fill-opacity:1;fill-rule:nonzero;stroke:url(#linearGradient4293);stroke-width:1.74356699;stroke-linecap:round;stroke-linejoin:round;stroke-miterlimit:4;stroke-dasharray:none;stroke-opacity:1" />
      <g
         id="text4297"
         style="font-style:normal;font-weight:normal;font-size:38.81914902px;line-height:125%;font-family:Sans;letter-spacing:0px;word-spacing:0px;fill:url(#radialGradient4307);fill-opacity:1;stroke:none;stroke-width:1px;stroke-linecap:butt;stroke-linejoin:miter;stroke-opacity:1"
         transform="scale(1.163316,0.85961165)">
        <path
           id="path4162"
           style="font-style:normal;font-variant:normal;font-weight:900;font-stretch:normal;font-size:24.26197052px;font-family:Roboto;-inkscape-font-specification:'Roboto Heavy';fill:url(#radialGradient6456);fill-opacity:1"
           d="m 510.86716,1000.8436 -7.11984,0 0,-3.09199 7.11984,0 0,3.09199 z"
           inkscape:connector-curvature="0" />
      </g>
    </g>
  </g>
</svg>
